{"type":"FeatureCollection","features":[{"type": "Feature",
"properties":{
"time": 1473514567776,
"guid": "16267d88fbbb4f7586f3c92612a2aaa3.1c",
"title": "01/.24 GROSSES BIERGARTEN MOSAIK",
"description": "24 Teilmissionen benötigen 6 Hacks & sind leicht zu Fuß zu erledigen. Die Startpunkte der Einzelmissionen liegen weiter auseinander. Hier sind Fahrrad, Öffis oder zur Not ein Auto empfehlenswert.",
"author":"UPafus",
"authorTeam": "E",
"ratingE6": 800000,
"medianCompletionTimeMs": 1007634,
"numUniqueCompletedPlayers": 20,
"typeNumMission": 1,
"image": "https://lh3.googleusercontent.com/WmJrl0PHwSQ5YGgnuDKcxswxZ2bDlIZ-vwaA1z5tGeYIIVB-z1N21FIEuzM-5dl7uaZJmw9YE_ZDOg5CzbwQ",
"portalTitle": ["Chinesischer Turm","Heiliger St. Florian","Von Sckell Denkmal","Orangerie Im Englischen Garten","Sankt Florian Near Chinesischer Turm, München","Gaststätte am Chinesischen Turm"],
"portalTypeNum": [1,1,1,1,1,1],
"portalObjectiveNum": [1,1,1,1,1,1],
"id": 51
},
"geometry": {
"type": "LineString",
"coordinates": [
[
11.591939,48.152416
]
,[
11.592757,48.152154
]
,[
11.593974,48.151309
]
,[
11.594118,48.150884
]
,[
11.592419,48.1516
]
,[
11.591907,48.152058
]
]
}
},

{"type": "Feature",
"properties":{
"time": 1473514579238,
"guid": "ffd10ccc156e42c88fe9b14d52730d41.1c",
"title": "02/24 GROSSES BIERGARTEN MOSAIK",
"description": "Die 2. Teilmission führt uns zum Osterwaldgarten. Dieser liegt ebenfalls im/am Englischen Garten.",
"author":"UPafus",
"authorTeam": "E",
"ratingE6": 950000,
"medianCompletionTimeMs": 720056,
"numUniqueCompletedPlayers": 19,
"typeNumMission": 1,
"image": "https://lh3.googleusercontent.com/uMOayUBssadCRRvHgTMKvkeIqrCTHMkjfJgVa31JNmXd40awl2wfdtIYFS4iM2cphFRBDbpTTf_RFP9FJ60N",
"portalTitle": ["Church Crossings","Grabmal St Sylvester","Maria mit Kind","3 Hanging Guys","St. Sylvester","Osterwaldgarten - Biergarten am Englischen Garten"],
"portalTypeNum": [1,1,1,1,1,1],
"portalObjectiveNum": [1,1,1,1,1,1],
"id": 51
},
"geometry": {
"type": "LineString",
"coordinates": [
[
11.591831,48.161562
]
,[
11.591991,48.161229
]
,[
11.59263,48.161218
]
,[
11.592414,48.161411
]
,[
11.592514,48.161579
]
,[
11.593921,48.161759
]
]
}
},

{"type": "Feature",
"properties":{
"time": 1473514582239,
"guid": "35c8c5656d48486b8e69b52315c15cde.1c",
"title": "03/24 GROSSES BIERGARTEN MOSAIK",
"description": "Nachdem Ihr nun die ersten 2 von 24 Badges geschafft habt, könnt Ihr nun auch noch das 3. im Englischen Garten 'einarbeiten'. Finden werdet Ihr es im Biergarten Seehaus. Viel Spaß mit der 3. Mission.",
"author":"UPafus",
"authorTeam": "E",
"ratingE6": 1000000,
"medianCompletionTimeMs": 902158,
"numUniqueCompletedPlayers": 20,
"typeNumMission": 1,
"image": "https://lh3.googleusercontent.com/PwO8vCkufJb_JIktKb5kGlv0W1XyHu-Y8Yz7VVPK5I60korOourkB2poZol7SKBRXSeHyiYnnGjpl-XIuOw",
"portalTitle": ["Statue Am See","Andenken des Biedermannes","Bierbrunnen","Eingang Restaurant Seehaus","Denkmal Seehaus","Seehaus am Kleinhesseloher See"],
"portalTypeNum": [1,1,1,1,1,1],
"portalObjectiveNum": [1,1,1,1,1,1],
"id": 51
},
"geometry": {
"type": "LineString",
"coordinates": [
[
11.59799,48.158986
]
,[
11.597701,48.159859
]
,[
11.597894,48.160387
]
,[
11.598571,48.160635
]
,[
11.598556,48.160955
]
,[
11.598022,48.16121
]
]
}
},

{"type": "Feature",
"properties":{
"time": 1473514586885,
"guid": "ae8c1afb17694e4a8024a32d1c0d6842.1c",
"title": "04/24 GROSSES BIERGARTEN MOSAIK",
"description": "Und weiter geht es mit Biergarten No. 4: Die Hirschau liegt gleich in der Nähe des Seehauses, aber auf der anderen Seite des Mittleren Rings. Dies wird der letzte Biergarten im Englischen Garten sein",
"author":"UPafus",
"authorTeam": "E",
"ratingE6": 611111,
"medianCompletionTimeMs": 1285487,
"numUniqueCompletedPlayers": 17,
"typeNumMission": 1,
"image": "https://lh3.googleusercontent.com/i2O746gnehlk-0g9SwPZELefjFm-CEIUASWles7PO4Y6nPr7_ld2MDvhdZV2LDuUHfrfmI9L1uYuYcWXtws",
"portalTitle": ["Münchner Lach- und Schiess-Gesellschaft","Fox","Engelstor Grundschule","Sternenkieker","Boat Play ","Hirschau"],
"portalTypeNum": [1,1,1,1,1,1],
"portalObjectiveNum": [1,1,1,1,1,1],
"id": 51
},
"geometry": {
"type": "LineString",
"coordinates": [
[
11.590743,48.162014
]
,[
11.591286,48.162071
]
,[
11.59184,48.161867
]
,[
11.595819,48.162777
]
,[
11.602742,48.162437
]
,[
11.602013,48.161949
]
]
}
},

{"type": "Feature",
"properties":{
"time": 1473514601828,
"guid": "09070762cc364479899d7b6c65e90ac7.1c",
"title": "05/24 GROSSES BIERGARTEN MOSAIK",
"description": "Einer der gemütlichsten Biergärten ist die St. Emmeramsmühle im Norden Münchens, genauer gesagt in Oberföhring. Versteckt in den Isarauen kommt man am besten mit dem Fahrrad hin.",
"author":"UPafus",
"authorTeam": "E",
"ratingE6": 800000,
"medianCompletionTimeMs": 2015157,
"numUniqueCompletedPlayers": 19,
"typeNumMission": 1,
"image": "https://lh3.googleusercontent.com/B4mj1OQWH6K7edpGxG3STBAQUbkvh1_CjI1gObczYz8KI8xcBk76HZSgZ41j6i1M89lIkakkrS_lPH3quand1A",
"portalTitle": ["Cosima Tennisclub","Tram Station St Emmeram","Kletterpark St. Emeram","St. Emmeram","Kräutergarten ","St. Emmeramsmühle"],
"portalTypeNum": [1,1,1,1,1,1],
"portalObjectiveNum": [1,1,1,1,1,1],
"id": 51
},
"geometry": {
"type": "LineString",
"coordinates": [
[
11.634425,48.175592
]
,[
11.631459,48.176094
]
,[
11.628428,48.175943
]
,[
11.627789,48.176005
]
,[
11.627485,48.175191
]
,[
11.626958,48.175905
]
]
}
},

{"type": "Feature",
"properties":{
"time": 1473514604062,
"guid": "a88bdacd3c0540aaa6817488292f1f95.1c",
"title": "06/24 GROSSES BIERGARTEN MOSAIK",
"description": "Das schönste am Aumeister ist der Weg dorthin. Wer in den Biergarten am Nordende des Englischen Gartens radelt, hat den Park, bald fast für sich allein.",
"author":"UPafus",
"authorTeam": "E",
"ratingE6": 400000,
"medianCompletionTimeMs": 2282566,
"numUniqueCompletedPlayers": 15,
"typeNumMission": 1,
"image": "https://lh3.googleusercontent.com/3j_Jg7w9JPn3LvTUMd2GxJwLBNvoJ-XWU7yOsfENh1iwsVQ-xtN4FvmZPVnhZxRt7gh_EVDZTwhAqXckOKWL8A",
"portalTitle": ["Atrium Studentenstadt","Spielplatz","Max Planck Institut Für Physik","Iphitos Tenniscourts","Aumeister-Alm","Aumeister - Wirtschaft"],
"portalTypeNum": [1,1,1,1,1,1],
"portalObjectiveNum": [1,1,1,1,1,1],
"id": 51
},
"geometry": {
"type": "LineString",
"coordinates": [
[
11.61067,48.183884
]
,[
11.612174,48.183188
]
,[
11.61274,48.185633
]
,[
11.615116,48.185389
]
,[
11.620109,48.185646
]
,[
11.620048,48.185903
]
]
}
},

{"type": "Feature",
"properties":{
"time": 1473514620530,
"guid": "8296ca52b82945569b6ab36f4b0f1737.1c",
"title": "07/24 GROSSES BIERGARTEN MOSAIK",
"description": "Auf geht es in das 2. Mosaikviertel. Ich hoffe, Ihr seid gut gestärkt, denn nun ist zwischen den einzelnen Biergärten ein etwas weiterer Weg zu absolvieren.Viel Spaß im nördlichen Zentrum Münchens!",
"author":"UPafus",
"authorTeam": "E",
"ratingE6": 650000,
"medianCompletionTimeMs": 1283964,
"numUniqueCompletedPlayers": 20,
"typeNumMission": 1,
"image": "https://lh3.googleusercontent.com/FrhSpunaj4qTVPaKA3i8RuXDOIQJ8l04H_wmydnbU8dAL9OVLcFM4iImm24XW2YKOTgy0ocfRwNZXimI89eR",
"portalTitle": ["Maibaum Johanneskirchen","St. Johannes Baptist","Sonnenuhr","Hotel Park Inn","Johanneskirchen Train Station","Dicke Sophie"],
"portalTypeNum": [1,1,1,1,1,1],
"portalObjectiveNum": [1,1,1,1,1,1],
"id": 51
},
"geometry": {
"type": "LineString",
"coordinates": [
[
11.649867,48.169488
]
,[
11.650355,48.169885
]
,[
11.646733,48.170905
]
,[
11.645888,48.169568
]
,[
11.645856,48.168307
]
,[
11.647139,48.169212
]
]
}
},

{"type": "Feature",
"properties":{
"time": 1473514648288,
"guid": "c0da0f5b426044a097dc75d06e560ec1.1c",
"title": "08/24 GROSSES BIERGARTEN MOSAIK",
"description": "Nach dieser Mission habt hier bereits ein Drittel des Gesamtpaketes erledigt. Wir begeben uns jetzt ins Zentrum von München zum Viktualienmarkt.Auf geht's!",
"author":"UPafus",
"authorTeam": "E",
"ratingE6": 882353,
"medianCompletionTimeMs": 763648,
"numUniqueCompletedPlayers": 17,
"typeNumMission": 1,
"image": "https://lh3.googleusercontent.com/CIfj780eYBkDw9t2FHkrTNjO8ARES08DSUodPC-j6-Opn7F97Zt0RT1PTHP3uah9SscjMuTBToiBR0Pbq8ztnA",
"portalTitle": ["Marienstatue","Roiderjackl Statue","Langweiliger Brunnen","Karl Valentin Sculpture","Sculpture of Ida Schumacher","Maibaum Viktualienmarkt"],
"portalTypeNum": [1,1,1,1,1,1],
"portalObjectiveNum": [1,1,1,1,1,1],
"id": 51
},
"geometry": {
"type": "LineString",
"coordinates": [
[
11.577224,48.135256
]
,[
11.576663,48.135706
]
,[
11.576012,48.135505
]
,[
11.575528,48.135009
]
,[
11.576514,48.134955
]
,[
11.576076,48.135108
]
]
}
},

{"type": "Feature",
"properties":{
"time": 1473514680744,
"guid": "55f708b630854b39838ba7aac463661b.1c",
"title": "09/24 GROSSES BIERGARTEN MOSAIK",
"description": "In Haidhausen am Wiener Platz befindet sich der Hofbräukeller. Dieser Traditionsbiergarten ist stets sehr gut besucht, oft hat man Schwierigkeiten mit mehreren Leuten einen Platz zu finden.",
"author":"UPafus",
"authorTeam": "E",
"ratingE6": 842105,
"medianCompletionTimeMs": 718579,
"numUniqueCompletedPlayers": 20,
"typeNumMission": 1,
"image": "https://lh3.googleusercontent.com/Im6wI_kr3lX2hTZMEEY3zeebbLP6vCcT7bpMkpyUBw8YNP34j8_Mtw_1VQwmKiMD57bU1n9Nfm5Ef4BkApvmwQ",
"portalTitle": ["Maibaum Wiener Platz","Münchner Löwe","Hofbräukeller","Karl Valentin","Biergarten Hofbräukeller","Sepp Aus'm Hofbräukeller "],
"portalTypeNum": [1,1,1,1,1,1],
"portalObjectiveNum": [1,1,1,1,1,1],
"id": 51
},
"geometry": {
"type": "LineString",
"coordinates": [
[
11.596121,48.134439
]
,[
11.596204,48.13425
]
,[
11.5954,48.134032
]
,[
11.595456,48.134349
]
,[
11.595464,48.134421
]
,[
11.594975,48.134588
]
]
}
},

{"type": "Feature",
"properties":{
"time": 1473514692416,
"guid": "a623b24c01df4b9dbb56a6cfdcd6139e.1c",
"title": "10/24 GROSSES BIERGARTEN MOSAIK",
"description": "Servus! - Wir werden jetzt zweistellig! - das muss gefeiert werden! Wo? Na im hippen und stylischen Biergarten des Muffatwerkes. Biergarten mal anders!",
"author":"UPafus",
"authorTeam": "E",
"ratingE6": 954545,
"medianCompletionTimeMs": 747690,
"numUniqueCompletedPlayers": 23,
"typeNumMission": 1,
"image": "https://lh3.googleusercontent.com/1I3wPAvg080FCnqWYp9KFAg40SLlDarLy9s51fhxT932Ystx1X4DAe3G2IQh-cWGtqcyB-_pGXWFo22pCkJh",
"portalTitle": ["Volksbad","Schöne Uhren","Lederhosenbierkrug Graffiti ","Superbohne Graffiti","Grafitti Wall #2 Muffatwerk","Schornstein im Muffatwerk"],
"portalTypeNum": [1,1,1,1,1,1],
"portalObjectiveNum": [1,1,1,1,1,1],
"id": 51
},
"geometry": {
"type": "LineString",
"coordinates": [
[
11.588405,48.131785
]
,[
11.588319,48.132141
]
,[
11.58864,48.132743
]
,[
11.589129,48.13337
]
,[
11.58931,48.133193
]
,[
11.589053,48.132887
]
]
}
},

{"type": "Feature",
"properties":{
"time": 1473514722968,
"guid": "ca523dc5a025476697cd45076117f4e1.1c",
"title": "11/.24 GROSSES BIERGARTEN MOSAIK",
"description": "Geht noch Was? Oder könnt Ihr schon jetzt kein Bier mehr sehen? Falls ja, dann seid Ihr einfach zu schnell. Gönnt Euch ein paar Tage Pause & hackt dann weiter im Augustiner-Keller.",
"author":"UPafus",
"authorTeam": "E",
"ratingE6": 875000,
"medianCompletionTimeMs": 1105489,
"numUniqueCompletedPlayers": 16,
"typeNumMission": 1,
"image": "https://lh3.googleusercontent.com/ceEAHh_HXkTzUYsiupaCySl14hDk0VJU9mL5rrnE4E5CtzueH9EZ3vz6mAMURzALSh_JUxy1CXb4kC_zGFBDxA",
"portalTitle": ["Schneeball Des Lichts","Saint","Figuren an der Wand","Wappenlöwe","Brass Lion Doors","Augustiner Keller"],
"portalTypeNum": [1,1,1,1,1,1],
"portalObjectiveNum": [1,1,1,1,1,1],
"id": 51
},
"geometry": {
"type": "LineString",
"coordinates": [
[
11.545137,48.144655
]
,[
11.546729,48.144099
]
,[
11.547014,48.144061
]
,[
11.547345,48.143963
]
,[
11.549625,48.143523
]
,[
11.551702,48.143037
]
]
}
},

{"type": "Feature",
"properties":{
"time": 1473514739707,
"guid": "41caab5d5a674b7583a52d13853f3b16.1c",
"title": "12/24 GROSSES BIERGARTEN MOSAIK",
"description": "Ihr seid jetzt kurz vor der Halbzeit.  Weiterhin seid Ihr hier im Zentrum Münchens . Nahe der Theresienwiese, wo jährlich das Oktoberfest stattfindet. Aber Bier gibt's hier das ganze Jahr...",
"author":"UPafus",
"authorTeam": "E",
"ratingE6": 944444,
"medianCompletionTimeMs": 1183628,
"numUniqueCompletedPlayers": 17,
"typeNumMission": 1,
"image": "https://lh3.googleusercontent.com/wD7WoN4kXDN8OC5xU_2poysx0lVDSUSdVxYzTpIyJPtNGG5UMcrSWEf92-uxQW_YFZ-bobo5wyD5wZdjXaRa",
"portalTitle": ["Reiterin - 'Phantasie'","Jungfrau auf Einhorn - 'Schönheit'","Jüngling Auf Seekuh - 'Reichtum'","Liegende Quellennymphe","Wilde Pferde","Maibaum 2"],
"portalTypeNum": [1,1,1,1,1,1],
"portalObjectiveNum": [1,1,1,1,1,1],
"id": 51
},
"geometry": {
"type": "LineString",
"coordinates": [
[
11.541874,48.130464
]
,[
11.541156,48.131074
]
,[
11.541238,48.131454
]
,[
11.542073,48.131572
]
,[
11.54335,48.131876
]
,[
11.543771,48.132077
]
]
}
},

{"type": "Feature",
"properties":{
"time": 1473514870809,
"guid": "01be85bbe72c4d0e9efdb69a0350d2cd.1c",
"title": "13/24 GROSSES BIERGARTEN MOSAIK",
"description": "HALBZEIT! - Wer hier weitermacht, hat wirklich Riesenehrgeiz. Aber es lohnt sich. Wahre Biergartenperlen liegen noch vor Euch. Wir arbeiten uns langsam durch in Richtung Münchner Süden.",
"author":"UPafus",
"authorTeam": "E",
"ratingE6": 850000,
"medianCompletionTimeMs": 1314458,
"numUniqueCompletedPlayers": 19,
"typeNumMission": 1,
"image": "https://lh3.googleusercontent.com/3Bp7KLcrQug42VYHq9ZM-pVe3ypH5Da2ia0SN5zrvOw5TLhlDNCUXQWM4JoWDIuZPOEO_UKkO6mt8ELq0vVE0A",
"portalTitle": ["Kunstvolle Fassade Schellingstraße","Hero Mural","Graubart","Georg-Elser-Platz","Putto","Max Emanuel Biergarten"],
"portalTypeNum": [1,1,1,1,1,1],
"portalObjectiveNum": [1,1,1,1,1,1],
"id": 51
},
"geometry": {
"type": "LineString",
"coordinates": [
[
11.576923,48.15007
]
,[
11.576165,48.150365
]
,[
11.57616,48.150702
]
,[
11.576793,48.150982
]
,[
11.577271,48.152
]
,[
11.576442,48.152763
]
]
}
},

{"type": "Feature",
"properties":{
"time": 1473514895166,
"guid": "687f9608b0414c45b8cfe2549a916fbf.1c",
"title": "14/24 GROSSES BIERGARTEN MOSAIK",
"description": "Weiterhüpfen, weiterschlumpfen, weitertrinken...Jetzt wird's groß --- richtig groß: Der Hirschgarten ist mit 8.000 Sitzplätzen der größte unter den Münchner Biergärten.",
"author":"UPafus",
"authorTeam": "E",
"ratingE6": 875000,
"medianCompletionTimeMs": 1127907,
"numUniqueCompletedPlayers": 16,
"typeNumMission": 1,
"image": "https://lh3.googleusercontent.com/nlpQWtQJNvlbCYi1dxDn7rxF8WcLVzy4jwgdkiv5OgDwE0YsSu1_sEKiurZR9JhoHUpJQn8kTTagghLr4TYP",
"portalTitle": ["Spielplatz im Hirschgarten","Palmen","Easy Rider Hirschgarten","Hirschgarten München - Blick a","Historisches Karussel im Hirsc","Hirschgarten Biergarten"],
"portalTypeNum": [1,1,1,1,1,1],
"portalObjectiveNum": [1,1,1,1,1,1],
"id": 51
},
"geometry": {
"type": "LineString",
"coordinates": [
[
11.512922,48.148353
]
,[
11.510661,48.147094
]
,[
11.509119,48.148134
]
,[
11.511333,48.148357
]
,[
11.511958,48.148889
]
,[
11.511214,48.149399
]
]
}
},

{"type": "Feature",
"properties":{
"time": 1473514921481,
"guid": "1a77faa09b34459fa9af348c765d9620.1c",
"title": "15/24 GROSSES BIERGARTEN MOSAIK",
"description": "Das größte Sommerglück ist der Genuss von Spareribs unter Glühbirnenketten, zwischen den Kastanien des Taxisgartens...Laßt Euch überzeugen...",
"author":"UPafus",
"authorTeam": "E",
"ratingE6": 812500,
"medianCompletionTimeMs": 1567067,
"numUniqueCompletedPlayers": 16,
"typeNumMission": 1,
"image": "https://lh3.googleusercontent.com/vNg-IWnQW11fBglh7WdTX38VdK6mN-vmR-_gqCGKMjRKQ0Y0wTP6x49RTtc-7sXjEm-LrxqVUP3r60Aft3qa",
"portalTitle": ["Concordia Denkmal","ASP Neuhausen","Abenteuerspielplatz Neuhausen","Lord of Rings","Brunnen Eingang Frauenklinik","Taxisgarten"],
"portalTypeNum": [1,1,1,1,1,1],
"portalObjectiveNum": [1,1,1,1,1,1],
"id": 51
},
"geometry": {
"type": "LineString",
"coordinates": [
[
11.536527,48.163661
]
,[
11.535445,48.16194
]
,[
11.534564,48.161725
]
,[
11.532885,48.161401
]
,[
11.532386,48.161303
]
,[
11.532127,48.162631
]
]
}
},

{"type": "Feature",
"properties":{
"time": 1473514941057,
"guid": "ab5cfa28a3534d3b9645c736c6fc6eae.1c",
"title": "16/24 GROSSES BIERGARTEN MOSAIK",
"description": "Der Biergarten heißt Biergarten, weil man dort Bier trinkt, sonst würde er ja Wassergarten heißen. Das bedeutet also: Auf Wasser kann getrost verzichtet werden, außer der Hund ist dabei. Weiter geht's",
"author":"UPafus",
"authorTeam": "E",
"ratingE6": 777778,
"medianCompletionTimeMs": 782138,
"numUniqueCompletedPlayers": 18,
"typeNumMission": 1,
"image": "https://lh3.googleusercontent.com/oa1l8PKx8gtNZxKl6DyJy0oK1EOW5o75Rg7A7gtWfT_B8egDj2cm5J2cSsqtlOgGAUcy3JDtbBo4zUHo02Q",
"portalTitle": ["Anatomisch Korrekt","Allacher Pfarrer Josef Grimm Gedenktafel","Untermenzing gedenkt Der Toten","Untermenzinger Maibaum","Eiswaffel","Untermenzinger Inselmühle"],
"portalTypeNum": [1,1,1,1,1,1],
"portalObjectiveNum": [1,1,1,1,1,1],
"id": 51
},
"geometry": {
"type": "LineString",
"coordinates": [
[
11.463429,48.179337
]
,[
11.462513,48.178817
]
,[
11.461745,48.178817
]
,[
11.461577,48.178208
]
,[
11.461692,48.177683
]
,[
11.462073,48.176829
]
]
}
},

{"type": "Feature",
"properties":{
"time": 1473514965320,
"guid": "c7a576a30596425781458b6897525275.1c",
"title": "17/24 GROSSES BIERGARTEN MOSAIK",
"description": "Sooo, Freunde des Hopfenblütentees. 2/3 sind erledigt, das Letzte sicherlich auch noch machbar. Wer sich bis hierhin durchgekämpft hat, wird sicher nicht mehr aufgeben wollen ;-)))",
"author":"UPafus",
"authorTeam": "E",
"ratingE6": 764706,
"medianCompletionTimeMs": 1148190,
"numUniqueCompletedPlayers": 16,
"typeNumMission": 1,
"image": "https://lh3.googleusercontent.com/qVMNKsHsAv-pnRUwxu-HTtPnsTX_DRKuVrJ4y3_GCHJz11BZQsJ7ztRDUtdeka89_kOcjite2htWDN_-tK8",
"portalTitle": ["Rudi-Sedlmayer-Halle","Mauerstück Im Hopfengarten","Audi Dome","Nostalgisches Kinderkarussell","Fountains at the Westpark","Steinskulptur am Audi Dome"],
"portalTypeNum": [1,1,1,1,1,1],
"portalObjectiveNum": [1,1,1,1,1,1],
"id": 51
},
"geometry": {
"type": "LineString",
"coordinates": [
[
11.52568,48.126327
]
,[
11.52474,48.127047
]
,[
11.524743,48.125614
]
,[
11.526466,48.125189
]
,[
11.526717,48.125032
]
,[
11.526454,48.125547
]
]
}
},

{"type": "Feature",
"properties":{
"time": 1473514970171,
"guid": "639dfce80a144697869b88ebb2e18a42.1c",
"title": "18/24 GROSSES BIERGARTEN MOSAIK",
"description": "Und gleich ist die 3. Reihe voll, was bedeutet, dass 3/4 der Aufgabe erlledigt sind. Weiter geht's mit einem Westpark Geheimtipp: Dem Rosengarten",
"author":"UPafus",
"authorTeam": "E",
"ratingE6": 750000,
"medianCompletionTimeMs": 1044874,
"numUniqueCompletedPlayers": 20,
"typeNumMission": 1,
"image": "https://lh3.googleusercontent.com/HmziU7rJb2KmHDIPUVL-5q-VhmWqtZTi7hqp4MHgSFncQtoe-mTccerrXHWob3L0Q7WNoeYLRpi4knldKdjfJA",
"portalTitle": ["Westparkeingang Westend","Die Linde","Wasserfontänen Rosengarten","Wirtshaus Rosengarten","Kutsche hinter Gasthaus Rosengarten","Maibaum Biergarten Rosengarten"],
"portalTypeNum": [1,1,1,1,1,1],
"portalObjectiveNum": [1,1,1,1,1,1],
"id": 51
},
"geometry": {
"type": "LineString",
"coordinates": [
[
11.509323,48.124249
]
,[
11.509524,48.123087
]
,[
11.509312,48.122746
]
,[
11.50883,48.122853
]
,[
11.508137,48.123073
]
,[
11.509091,48.12224
]
]
}
},

{"type": "Feature",
"properties":{
"time": 1473514995719,
"guid": "05c8b8d206494c4280b93ebafd454f3c.1c",
"title": "19/24 GROSSES BIERGARTEN MOSAIK",
"description": "Es geht jetzt - hier im Süden Münchens immer näher an die Isar heran. Das Mosaik versucht deshalb auch den Flußlauf zu visualisieren und die Biergartenperlen auf der Isarkette darzustellen.",
"author":"UPafus",
"authorTeam": "E",
"ratingE6": 600000,
"medianCompletionTimeMs": 1448666,
"numUniqueCompletedPlayers": 15,
"typeNumMission": 1,
"image": "https://lh3.googleusercontent.com/f-Jp0SUi-mUSZOjBUta_mihpy4lhLlMVty8sxq9J0Z3Re1pcI8w2zHTKoj2q5e-61OF12Rhg_aKnP7rhsek",
"portalTitle": ["Feed The Bird","Thalkirchner Tor","Flaucheranlage Eingang Brudermühlstr.","Gentlemans Club Graffitti","Modern Art Mural","Biergarten Zum Flaucher"],
"portalTypeNum": [1,1,1,1,1,1],
"portalObjectiveNum": [1,1,1,1,1,1],
"id": 51
},
"geometry": {
"type": "LineString",
"coordinates": [
[
11.553189,48.112028
]
,[
11.553964,48.11232
]
,[
11.556134,48.112657
]
,[
11.558691,48.112705
]
,[
11.559039,48.112298
]
,[
11.557464,48.108605
]
]
}
},

{"type": "Feature",
"properties":{
"time": 1473515008305,
"guid": "5bac6dc3c81d4df49e97f1bffa002931.1c",
"title": "20/24 GROSSES BIERGARTEN MOSAIK",
"description": "Vorhin im Hirschgarten war Alles riesig, jetzt wird Alles klein. Aber Geheimtipps gehören eben auch zu diesem Biergarten Mosaik und solch einer liegt nun im wahrsten Sinne des Wortes vor Euch...",
"author":"UPafus",
"authorTeam": "E",
"ratingE6": 909091,
"medianCompletionTimeMs": 1130484,
"numUniqueCompletedPlayers": 22,
"typeNumMission": 1,
"image": "https://lh3.googleusercontent.com/JQYYXM9XAzcoZbDsdOTWSY6jzgFb6sQtI_ZZnVxTE2gI4kV6wqDlqCawTiGP_-zGnpL3Le3CubXW-tW3uKW3",
"portalTitle": ["Maria Mit Kind","St. Maria Thalkirchen","Goldener Hahn","Thalkirchen","Isar Tor 3","1860 Kanu-Club"],
"portalTypeNum": [1,1,1,1,1,1],
"portalObjectiveNum": [1,1,1,1,1,1],
"id": 51
},
"geometry": {
"type": "LineString",
"coordinates": [
[
11.544172,48.100355
]
,[
11.545198,48.100185
]
,[
11.545881,48.100376
]
,[
11.547158,48.101026
]
,[
11.547741,48.100964
]
,[
11.547925,48.099709
]
]
}
},

{"type": "Feature",
"properties":{
"time": 1473515024777,
"guid": "c8384b1dd07b445bb689e81adc098adb.1c",
"title": "21/.24 GROSSES BIERGARTEN MOSAIK",
"description": "Die nächsten 2 Biergärten liegen direkt am Isarhochufer und bieten tolle Ausblicke. Einer davon rechts, der Andere links der Isar. Durchhalten! - Ihr habt's bald geschafft!",
"author":"UPafus",
"authorTeam": "E",
"ratingE6": 764706,
"medianCompletionTimeMs": 1396159,
"numUniqueCompletedPlayers": 16,
"typeNumMission": 1,
"image": "https://lh3.googleusercontent.com/3LG7_xE5RPkKvlRGxcvuHtOgnQZuF5wsDXzq1UrVZOSTay6vJXYq3G_LXg-odNmdc0og2ebewhos_PFohAF3WA",
"portalTitle": ["Tramstation Großhesseloher Brücke","Märchenschlitten","Madonna an der Menterschwaige","Spielschiff ","Löwe in der Menterschwaige","Kinderkarussel Gutshof Menterschwaige"],
"portalTypeNum": [1,1,1,1,1,1],
"portalObjectiveNum": [1,1,1,1,1,1],
"id": 51
},
"geometry": {
"type": "LineString",
"coordinates": [
[
11.550106,48.076923
]
,[
11.544476,48.081513
]
,[
11.544685,48.081753
]
,[
11.545469,48.082352
]
,[
11.545788,48.082021
]
,[
11.545458,48.082035
]
]
}
},

{"type": "Feature",
"properties":{
"time": 1473515043160,
"guid": "c1817b1658164f099936bd679cc27781.1c",
"title": "22/24 GROSSES BIERGARTEN MOSAIK",
"description": "Hey! - Bronzene Teilmission - Bald ist's geschafft. Wir bleiben an der Isar und besuchen einen der berühmtesten Biergärten überhaupt: Die Waldwirtschaft (WaWi). - Prost nochmal!",
"author":"UPafus",
"authorTeam": "E",
"ratingE6": 933333,
"medianCompletionTimeMs": 1346393,
"numUniqueCompletedPlayers": 15,
"typeNumMission": 1,
"image": "https://lh3.googleusercontent.com/H1sOJ9zZAeigS51sC5QVnZ-YoMP6xuU59EOTAyuG1bHrt1VNZco7N5MCGtqnvOaJ5_kZhJBEAxgwmj6ECgQZ",
"portalTitle": ["Wasserturm","Drei Ecken ","Black Friday ","Schwarzer Kringel of Frustration ","Münchner Kindl Löwe ","Waldwirtschaft"],
"portalTypeNum": [1,1,1,1,1,1],
"portalObjectiveNum": [1,1,1,1,1,1],
"id": 51
},
"geometry": {
"type": "LineString",
"coordinates": [
[
11.533914,48.06656
]
,[
11.53854,48.06663
]
,[
11.538898,48.066206
]
,[
11.538993,48.06643
]
,[
11.539307,48.066761
]
,[
11.539302,48.067056
]
]
}
},

{"type": "Feature",
"properties":{
"time": 1473515077671,
"guid": "ddf3cf8c1ad44d7a80451bdc37db792a.1c",
"title": "23/24 GROSSES BIERGARTEN MOSAIK",
"description": "Die vorletzte Teilmission und damit ein absehbares Ende! Wir sind jetzt fast schon vor den südlichen Toren Münchens. Hier hat das Umland Urlaubscharakter und Alles wird etwas südländischer...",
"author":"UPafus",
"authorTeam": "E",
"ratingE6": 500000,
"medianCompletionTimeMs": 2861020,
"numUniqueCompletedPlayers": 12,
"typeNumMission": 1,
"image": "https://lh3.googleusercontent.com/V62Vw1H1puOv3dSJ_fPsaTFwfF0kDjR640_ITMazbCPebJvTSjHi6KFioPKXYqNztK5rvg6H2QViPYZuDoxF",
"portalTitle": ["Denkmal Todesmarsch","Rotenhan Monument - Gauting","Wandbild","Waldportal","Spielplatz Forst Kasten","Forsthaus Kasten Biergarten Maibaum"],
"portalTypeNum": [1,1,1,1,1,1],
"portalObjectiveNum": [1,1,1,1,1,1],
"id": 51
},
"geometry": {
"type": "LineString",
"coordinates": [
[
11.392997,48.074497
]
,[
11.393397,48.071349
]
,[
11.393612,48.071104
]
,[
11.418443,48.072426
]
,[
11.417455,48.075709
]
,[
11.416693,48.075189
]
]
}
},

{"type": "Feature",
"properties":{
"time": 1473515108680,
"guid": "9c2c189ff8974e36ad86661758ac8d3e.1c",
"title": "24/24 GROSSES BIERGARTEN MOSAIK",
"description": "YOU DID IT !!! - Ganz herzlichen Glückwunsch. Die letzten 6 Hacks sind zwar etwas mehr Laufarbeit, entlohnen aber mit einem Biergarten-Kleinod.Ich hoffe, es hat Spaß gemacht - DANKE FÜRS MITHACKEN",
"author":"UPafus",
"authorTeam": "E",
"ratingE6": 500000,
"medianCompletionTimeMs": 1974992,
"numUniqueCompletedPlayers": 12,
"typeNumMission": 1,
"image": "https://lh3.googleusercontent.com/wO2ODl22StODNzGg6HZKbxm5pb3A8iEaNJ55x1nHiVhrHLcM9nydfbOwKAuqoCaG92fadHBPHNAQTZSVdBtzig",
"portalTitle": ["Jesus Kreuz","Materl Leutstetten","Schloss und Dorf Leutstetten","Kirche St. Alto","Martl am Schloßgartl","Maibaum Leutstetten"],
"portalTypeNum": [1,1,1,1,1,1],
"portalObjectiveNum": [1,1,1,1,1,1],
"id": 51
},
"geometry": {
"type": "LineString",
"coordinates": [
[
11.374129,48.030176
]
,[
11.371729,48.025107
]
,[
11.369565,48.025522
]
,[
11.366982,48.029047
]
,[
11.36836,48.02956
]
,[
11.368577,48.029402
]
]
}
}]}