{"type":"FeatureCollection","features":[{"type": "Feature",
"properties":{
"time": 1473451952633,
"guid": "3d9cadc5cec04dd2961b524b0426037d.1c",
"title": "Capture St. Cäcilia",
"description": "Teil 1 der Germering Mosaik-Mission",
"author":"TA6T76IV",
"authorTeam": "E",
"ratingE6": 1000000,
"medianCompletionTimeMs": 627486,
"numUniqueCompletedPlayers": 29,
"typeNumMission": 1,
"image": "https://lh3.googleusercontent.com/dEd_m6qhPJYxl1U4zkf4Jyhud524gAgiWzsMzQ7iZZ3Cz-kVWAEMzjO7gt13I8D9mE7zmz9npVE__AuWSK_EWg",
"portalTitle": ["Mosaik","Portal of St. Caecilia","St. Caecilla","Stone Stack","Schmetterling","Fruth Horses"],
"portalTypeNum": [1,1,1,1,1,1],
"portalObjectiveNum": [2,2,2,2,2,2],
"id": 30
},
"geometry": {
"type": "LineString",
"coordinates": [
[
11.386416,48.134245
]
,[
11.386204,48.13444
]
,[
11.386189,48.134671
]
,[
11.386363,48.134879
]
,[
11.385569,48.134858
]
,[
11.384924,48.134353
]
]
}
},

{"type": "Feature",
"properties":{
"time": 1473451955313,
"guid": "c42dd62466e64788b0e9742ff1094650.1c",
"title": "Save St. Cäcilia",
"description": "Teil 2 der Germering Mosaik-Mission",
"author":"TA6T76IV",
"authorTeam": "E",
"ratingE6": 966667,
"medianCompletionTimeMs": 168980,
"numUniqueCompletedPlayers": 29,
"typeNumMission": 1,
"image": "https://lh3.googleusercontent.com/bRPMh-uuJKs4jJmT0lMcQYXf9aRfNS-Td7j7hChq35wHllR3NazzH__S-Ngxyl88fu_g6gu-1tOasWHNnYrz",
"portalTitle": ["Fruth Horses","Schmetterling","Stone Stack","St. Caecilla","Portal of St. Caecilia","Mosaik"],
"portalTypeNum": [1,1,1,1,1,1],
"portalObjectiveNum": [5,5,5,5,5,5],
"id": 30
},
"geometry": {
"type": "LineString",
"coordinates": [
[
11.384924,48.134353
]
,[
11.385569,48.134858
]
,[
11.386363,48.134879
]
,[
11.386189,48.134671
]
,[
11.386204,48.13444
]
,[
11.386416,48.134245
]
]
}
},

{"type": "Feature",
"properties":{
"time": 1473451961924,
"guid": "d2233a479c1d45fbadfe5938aa43cf9d.1c",
"title": "Link St. Cäcilia",
"description": "Teil 3 der Germering Mosaik-Mission",
"author":"TA6T76IV",
"authorTeam": "E",
"ratingE6": 920000,
"medianCompletionTimeMs": 493738,
"numUniqueCompletedPlayers": 25,
"typeNumMission": 1,
"image": "https://lh3.googleusercontent.com/0hAQj7kaN1aXWqvmo9OQ5SL80NXRCgqU7j9QukALEdhsfMz5ooMoHEf6TaeBpMO0XxqhnRn-ZphIu5MOXQb9",
"portalTitle": ["Mosaik","Portal of St. Caecilia","St. Caecilla","Stone Stack","Schmetterling","Fruth Horses"],
"portalTypeNum": [1,1,1,1,1,1],
"portalObjectiveNum": [3,3,3,3,3,3],
"id": 30
},
"geometry": {
"type": "LineString",
"coordinates": [
[
11.386416,48.134245
]
,[
11.386204,48.13444
]
,[
11.386189,48.134671
]
,[
11.386363,48.134879
]
,[
11.385569,48.134858
]
,[
11.384924,48.134353
]
]
}
},

{"type": "Feature",
"properties":{
"time": 1473451985987,
"guid": "5384dc420c554696a12d217bdd4c6ceb.1c",
"title": "Felder für St. Cäcilia",
"description": "Teil 4 der Germering Mosaik-Mission",
"author":"TA6T76IV",
"authorTeam": "E",
"ratingE6": 826087,
"medianCompletionTimeMs": 1042693,
"numUniqueCompletedPlayers": 23,
"typeNumMission": 1,
"image": "https://lh3.googleusercontent.com/eTUvqm4aLzHFd40egxDpVIPnvToFF_WhGlvQTBpEsO-UXjUMVu_p30M3aIZN3p5JhUXDO7gbNJr_MLRsBsI",
"portalTitle": ["Fruth Horses","Schmetterling","Stone Stack","St. Caecilla","Portal of St. Caecilia","Mosaik"],
"portalTypeNum": [1,1,1,1,1,1],
"portalObjectiveNum": [4,4,4,4,4,4],
"id": 30
},
"geometry": {
"type": "LineString",
"coordinates": [
[
11.384924,48.134353
]
,[
11.385569,48.134858
]
,[
11.386363,48.134879
]
,[
11.386189,48.134671
]
,[
11.386204,48.13444
]
,[
11.386416,48.134245
]
]
}
},

{"type": "Feature",
"properties":{
"time": 1473451990510,
"guid": "06a99de1a1b643f3aa80f012b89234f7.1c",
"title": "Hack am Therese Giese Platz",
"description": "Teil 5 der Germering Mosaik-Mission",
"author":"TA6T76IV",
"authorTeam": "E",
"ratingE6": 861111,
"medianCompletionTimeMs": 871481,
"numUniqueCompletedPlayers": 37,
"typeNumMission": 1,
"image": "https://lh3.googleusercontent.com/hmOH79KZ5_to3GYJmTyA5YNxgmzHuaAUJS-Lvgd8Vq_jgaGbjQU8xSrLI8JauTu_2LFXcjYz-oOxjiISn3k",
"portalTitle": ["Fontaine Engel","Drei Pfeifen","Broken Globe","Stadthalle Germering","Skulptur 'Menetekel'","Germering Bahnhof"],
"portalTypeNum": [1,1,1,1,1,1],
"portalObjectiveNum": [1,1,1,1,1,1],
"id": 30
},
"geometry": {
"type": "LineString",
"coordinates": [
[
11.368152,48.129908
]
,[
11.3675,48.131111
]
,[
11.36645,48.130363
]
,[
11.365663,48.130624
]
,[
11.365,48.129444
]
,[
11.364384,48.129038
]
]
}
},

{"type": "Feature",
"properties":{
"time": 1473452013749,
"guid": "62738db78df644089da3fb4e72b26ccd.1c",
"title": "MOD Therese Giese Platz",
"description": "Teil 6 der Germering Mosaik-Mission",
"author":"TA6T76IV",
"authorTeam": "E",
"ratingE6": 800000,
"medianCompletionTimeMs": 732922,
"numUniqueCompletedPlayers": 18,
"typeNumMission": 1,
"image": "https://lh3.googleusercontent.com/5mhMU3Ax5G4McyxfFJy15_tnQ7scjChNawrj7qFUZWVruRB8qf8GhjwhJPwrmPEFJRihMZfByq43HMYzD0OS",
"portalTitle": ["Germering Bahnhof","Skulptur 'Menetekel'","Stadthalle Germering","Broken Globe","Drei Pfeifen","Fontaine Engel"],
"portalTypeNum": [1,1,1,1,1,1],
"portalObjectiveNum": [5,5,5,5,5,5],
"id": 30
},
"geometry": {
"type": "LineString",
"coordinates": [
[
11.364384,48.129038
]
,[
11.365,48.129444
]
,[
11.365663,48.130624
]
,[
11.36645,48.130363
]
,[
11.3675,48.131111
]
,[
11.368152,48.129908
]
]
}
}]}