{"type": "FeatureCollection","features": [{"type": "Feature","properties": {"mission":1},"geometry":{"type": "Point","coordinates":[
11.575486,48.13722
]
}},{"type": "Feature","properties": {"mission":2},"geometry":{"type": "Point","coordinates":[
11.574532,48.138552
]
}},{"type": "Feature","properties": {"mission":3},"geometry":{"type": "Point","coordinates":[
11.575515,48.13831
]
}},{"type": "Feature","properties": {"mission":4},"geometry":{"type": "Point","coordinates":[
11.573913,48.139753
]
}},{"type": "Feature","properties": {"mission":5},"geometry":{"type": "Point","coordinates":[
11.577573,48.139545
]
}},{"type": "Feature","properties": {"mission":6},"geometry":{"type": "Point","coordinates":[
11.577626,48.141269
]
}},{"type": "Feature","properties": {"mission":7},"geometry":{"type": "Point","coordinates":[
11.578185,48.142454
]
}},{"type": "Feature","properties": {"mission":8},"geometry":{"type": "Point","coordinates":[
11.581512,48.143446
]
}},{"type": "Feature","properties": {"mission":9},"geometry":{"type": "Point","coordinates":[
11.580675,48.141462
]
}},{"type": "Feature","properties": {"mission":10},"geometry":{"type": "Point","coordinates":[
11.578339,48.139714
]
}},{"type": "Feature","properties": {"mission":11},"geometry":{"type": "Point","coordinates":[
11.588364,48.137858
]
}},{"type": "Feature","properties": {"mission":12},"geometry":{"type": "Point","coordinates":[
11.595347,48.136196
]
}},{"type": "Feature","properties": {"mission":13},"geometry":{"type": "Point","coordinates":[
11.594642,48.141671
]
}},{"type": "Feature","properties": {"mission":14},"geometry":{"type": "Point","coordinates":[
11.58644,48.14328
]
}},{"type": "Feature","properties": {"mission":15},"geometry":{"type": "Point","coordinates":[
11.587689,48.143404
]
}},{"type": "Feature","properties": {"mission":16},"geometry":{"type": "Point","coordinates":[
11.587709,48.146698
]
}},{"type": "Feature","properties": {"mission":17},"geometry":{"type": "Point","coordinates":[
11.592607,48.153256
]
}},{"type": "Feature","properties": {"mission":18},"geometry":{"type": "Point","coordinates":[
11.588574,48.156185
]
}},{"type": "Feature","properties": {"mission":19},"geometry":{"type": "Point","coordinates":[
11.581717,48.152194
]
}},{"type": "Feature","properties": {"mission":20},"geometry":{"type": "Point","coordinates":[
11.583587,48.156343
]
}},{"type": "Feature","properties": {"mission":21},"geometry":{"type": "Point","coordinates":[
11.585183,48.159359
]
}},{"type": "Feature","properties": {"mission":22},"geometry":{"type": "Point","coordinates":[
11.567055,48.160899
]
}},{"type": "Feature","properties": {"mission":23},"geometry":{"type": "Point","coordinates":[
11.562639,48.159251
]
}},{"type": "Feature","properties": {"mission":24},"geometry":{"type": "Point","coordinates":[
11.568888,48.154723
]
}}]}