{"type": "FeatureCollection","features": [{"type": "Feature","properties": {"mission":1},"geometry":{"type": "Point","coordinates":[
11.593261,48.035366
]
}},{"type": "Feature","properties": {"mission":2},"geometry":{"type": "Point","coordinates":[
11.580154,48.031108
]
}},{"type": "Feature","properties": {"mission":3},"geometry":{"type": "Point","coordinates":[
11.580101,48.020654
]
}},{"type": "Feature","properties": {"mission":4},"geometry":{"type": "Point","coordinates":[
11.588772,48.021383
]
}},{"type": "Feature","properties": {"mission":5},"geometry":{"type": "Point","coordinates":[
11.595365,48.025532
]
}},{"type": "Feature","properties": {"mission":6},"geometry":{"type": "Point","coordinates":[
11.597874,48.026545
]
}}]}