{"type":"FeatureCollection","features":[{"type": "Feature",
"properties":{
"time": 1473503960892,
"guid": "b69d5ef327b14b5b946e1eb2b1ed5e2c.1c",
"title": "The Shapers Eye 1/18  Missionsgebiet: Dachau",
"description": "Die Shapers wurden im geschichtsträchtigen Dachau gesichtet. Um ihnen auf den Fersen zu bleiben müsst ihr einige Portale in der Stadt besuchen. Anschließend geht es weiter nach Karlsfeld.",
"author":"Sturmgrimm",
"authorTeam": "E",
"ratingE6": 947368,
"medianCompletionTimeMs": 1217894,
"numUniqueCompletedPlayers": 19,
"typeNumMission": 2,
"image": "https://lh3.googleusercontent.com/QSYQOAIcDliTzjECW3rP0RibcLtC8RjY_xcuBpLpIJJMN4DAkNtqUuhC2LiSmOFjUA6CewFpJmVpnKAFp-A",
"portalTitle": ["S-Bahnhof Dachau","Stockmann-Haus","Weib mit Kind von 1876","Yellow Cube","Mosaik at Stadtsparkasse","WWI Lion","Jesus","Denkmal Robert Reischl"],
"portalTypeNum": [1,1,1,1,1,1,1,1],
"portalObjectiveNum": [1,1,1,1,1,1,1,1],
"id": 41
},
"geometry": {
"type": "LineString",
"coordinates": [
[
11.444106,48.254208
]
,[
11.439509,48.25419
]
,[
11.437894,48.256693
]
,[
11.439789,48.257653
]
,[
11.450195,48.257471
]
,[
11.453351,48.256819
]
,[
11.454526,48.256733
]
,[
11.459428,48.256628
]
]
}
},

{"type": "Feature",
"properties":{
"time": 1473503975118,
"guid": "1f2b3587ca564b5f83b5ef6f279b9b9c.1c",
"title": "The Shapers Eye 2/18 Missionsgebiet: Karlsfeld",
"description": "Nachdem ihr in Dachau einige Hinterlassenschaften der Shapers gefunden habt, müsst ihr weiter nach Karlsfeld.",
"author":"Sturmgrimm",
"authorTeam": "E",
"ratingE6": 761905,
"medianCompletionTimeMs": 1021038,
"numUniqueCompletedPlayers": 23,
"typeNumMission": 2,
"image": "https://lh3.googleusercontent.com/vdEzs168Hvn0bstiEK4vWcPUKKd0i0zAgR987NbVLiaVvXoFpe97PePEOdWtKZy3VeNK2XLP8G4E4TYhtq6g",
"portalTitle": ["Monopterus","Rapp Bank","Carolinen Brücke","Yellow Dogmarine","Brunnen 'Four Elements'","Karlsfelder Meile","Ludl Kapelle"],
"portalTypeNum": [1,1,1,1,1,1,1],
"portalObjectiveNum": [1,1,1,1,1,1,1],
"id": 41
},
"geometry": {
"type": "LineString",
"coordinates": [
[
11.479023,48.234041
]
,[
11.481484,48.228637
]
,[
11.478518,48.224325
]
,[
11.472525,48.222181
]
,[
11.470642,48.223312
]
,[
11.469078,48.224826
]
,[
11.465923,48.226463
]
]
}
},

{"type": "Feature",
"properties":{
"time": 1473504016055,
"guid": "a0fee8c891a54810a0ab72d2432f161f.1c",
"title": "The Shapers Eye 3/18  Missionsgebiet: Gada/Bergk.",
"description": "Nach Karlsfeld geht es nun nach Bergkirchen / Gada. Ihr spürt das erst kürzlich Shaper anwesend waren. Hier müsst ihr etwas mehr Zeit aufwenden...",
"author":"Sturmgrimm",
"authorTeam": "E",
"ratingE6": 294118,
"medianCompletionTimeMs": 1844919,
"numUniqueCompletedPlayers": 19,
"typeNumMission": 2,
"image": "https://lh3.googleusercontent.com/3MN_I49Q9Xp_YPFoXoCpEHOEwAyxOFa_UWW7a-F2Tuu4EP-hHR7il_lkyOq599bhb-k-v0lYY77phjBaYpRb",
"portalTitle": ["Jesus-Kreuz","Maibaum Feldgeding","'Strauß' ... on top","Kartpalast ","Maibaum","Katholische Kirche Bergkirchen"],
"portalTypeNum": [1,1,1,1,1,1],
"portalObjectiveNum": [1,2,1,1,2,1],
"id": 41
},
"geometry": {
"type": "LineString",
"coordinates": [
[
11.377341,48.234857
]
,[
11.373343,48.246377
]
,[
11.353707,48.237624
]
,[
11.350783,48.236318
]
,[
11.364391,48.254299
]
,[
11.363216,48.255361
]
]
}
},

{"type": "Feature",
"properties":{
"time": 1473504071962,
"guid": "8bba22bc3702445db92d3c396281a340.1c",
"title": "The Shapers Eye 4/18 Missionsgebiet: Schwabhausen",
"description": "Bergkirchen habt ihr hinter euch gelassen. Aber ihr seid den Shapers weiter auf den Fersen. Es geht nach Schwabhausen.",
"author":"Sturmgrimm",
"authorTeam": "E",
"ratingE6": 714286,
"medianCompletionTimeMs": 954276,
"numUniqueCompletedPlayers": 21,
"typeNumMission": 2,
"image": "https://lh3.googleusercontent.com/kyI53zHZepZ7PKO2IaQyRBgHUCzs_A40wh3c2vFxrMxQFPBRveEsmtsjSNSHO4Y0D7SFFR2pA-GKcQRajgtL",
"portalTitle": ["TSV Schwabhausen ","Maibaum Schwabhausen","Denkmal Schwabhausen","Kranich","Flaming Heart Statue","Sparkassenbrunnen"],
"portalTypeNum": [1,1,1,1,1,1],
"portalObjectiveNum": [1,1,1,1,1,1],
"id": 41
},
"geometry": {
"type": "LineString",
"coordinates": [
[
11.349056,48.305554
]
,[
11.35062,48.3057
]
,[
11.352261,48.304827
]
,[
11.356357,48.302896
]
,[
11.3571,48.30289
]
,[
11.357452,48.30287
]
]
}
},

{"type": "Feature",
"properties":{
"time": 1473504074940,
"guid": "d12343f99196474c817a34f437ace5ac.1c",
"title": "The Shapers Eye 5/18 Missionsgebiet: Sulzemoos",
"description": "Schwabhausen hat euch nicht weiter gebracht. Aber die Anwohner konnten euch Hinweise geben und ihr begebt euch nun nach Sulzemoos.",
"author":"Sturmgrimm",
"authorTeam": "E",
"ratingE6": 722222,
"medianCompletionTimeMs": 876025,
"numUniqueCompletedPlayers": 18,
"typeNumMission": 2,
"image": "https://lh3.googleusercontent.com/I1ULWq3AKYAucAQQgeXnIvAsji4zEn-B__Rx-vqqh_CaDyF3AYcMNpmp_Moc_dg3DP3jPIyb2717nIS_Ox2Bdg",
"portalTitle": ["Schloss Sulzemoos","St. Johannes in Sulzemoos","Bavaria Belongs to the Bavarian","Brunnen in Sulzemoos","Maibaum Sulzemoos","Steinkunst"],
"portalTypeNum": [1,1,1,1,1,1],
"portalObjectiveNum": [1,1,1,1,1,1],
"id": 41
},
"geometry": {
"type": "LineString",
"coordinates": [
[
11.263912,48.287797
]
,[
11.263328,48.28853
]
,[
11.263329,48.288932
]
,[
11.263416,48.289653
]
,[
11.264526,48.290092
]
,[
11.264494,48.290412
]
]
}
},

{"type": "Feature",
"properties":{
"time": 1473504097543,
"guid": "74faaad199004b689721a070c5da1ae0.1c",
"title": "The Shapers Eye 6/18 Missionsgebiet: Odelzhausen",
"description": "Ihr wisst nun, dass die Shapers hier waren. Und ihr wisst, sie sind weiter nach Norden gezogen. Odelzhausen geht es weiter...",
"author":"Sturmgrimm",
"authorTeam": "E",
"ratingE6": 850000,
"medianCompletionTimeMs": 1628400,
"numUniqueCompletedPlayers": 20,
"typeNumMission": 2,
"image": "https://lh3.googleusercontent.com/xkrdg_ZlJIhVdaKYeXJfxguuR2LyHwzvHzftZ-U4pLQgpFgQODc_BfuiX5uUxrgJZ_SH2VMM1tP7AowocFs",
"portalTitle": ["Marterl in der Schulstr","Übergroßes Schachspiel","Aussegnungshalle Odelzhausen","Kunst in Odelzhausen","Fasadenkunst in Odelzhausen","Schloßkapelle St. Johannes","Marterl in Taxa","Brunnen","Schloss Odelzhausen"],
"portalTypeNum": [1,1,1,1,1,1,1,1,1],
"portalObjectiveNum": [1,1,1,1,1,1,1,1,1],
"id": 41
},
"geometry": {
"type": "LineString",
"coordinates": [
[
11.19878,48.311662
]
,[
11.195794,48.311844
]
,[
11.195049,48.312015
]
,[
11.196076,48.310585
]
,[
11.196864,48.310459
]
,[
11.203204,48.313184
]
,[
11.204257,48.314167
]
,[
11.202004,48.314193
]
,[
11.2017,48.314238
]
]
}
},

{"type": "Feature",
"properties":{
"time": 1473504110086,
"guid": "71433f7b74f445099e8b291ee1842e97.1c",
"title": "The Shapers Eye 7/18 Missionsgebiet: Adelzhausen",
"description": "Weiter nach Adelzhausen....",
"author":"Sturmgrimm",
"authorTeam": "E",
"ratingE6": 764706,
"medianCompletionTimeMs": 1222545,
"numUniqueCompletedPlayers": 19,
"typeNumMission": 2,
"image": "https://lh3.googleusercontent.com/Ss3kLyL5j-7WLjQGWny-ZDnUKTTXdU5ddiByC8BnaxvspIeVjqAScRhtVkK8fNvlfwqGVkBJoga6YxhPHDin",
"portalTitle": ["Kleine kapelle bei Adelzhausen","Da Jesus von Adelzhausen","Marterl in Adelzhausen","Eisenvögel","Pfarrhaus Adelzhausen","Maibaum Adelzhausen","Kriegerdenkmal Adelzhausen","St. Elisabeth in Adelzhausen"],
"portalTypeNum": [1,1,1,1,1,1,1,1],
"portalObjectiveNum": [1,1,1,1,1,1,1,1],
"id": 41
},
"geometry": {
"type": "LineString",
"coordinates": [
[
11.134376,48.355929
]
,[
11.137948,48.355437
]
,[
11.139182,48.356741
]
,[
11.138635,48.357023
]
,[
11.138468,48.358062
]
,[
11.137922,48.358847
]
,[
11.139293,48.35801
]
,[
11.139637,48.358266
]
]
}
},

{"type": "Feature",
"properties":{
"time": 1473504126511,
"guid": "c2b0d9a4deab4c4eaf80252725641877.1c",
"title": "The Shapers Eye 8/18 Missionsgebiet: Altomünster",
"description": "Altomünster... Hier werdet ihr wieder etwas Zeit brauchen. Ihr sammelt immer mehr Hinweise.",
"author":"Sturmgrimm",
"authorTeam": "E",
"ratingE6": 857143,
"medianCompletionTimeMs": 731642,
"numUniqueCompletedPlayers": 16,
"typeNumMission": 2,
"image": "https://lh3.googleusercontent.com/3XFxtDf0uIEj0Fg7HnD9I43MIpIIGxYRNqqNZ2oqBHbydbxZC3gHmYD5HG5deOhKlz0vrXW1jtfW8PVGMsk",
"portalTitle": ["Bahnhof Altomünster","Steinkunst","Stadtwappen","Maier Bräu 1838","Marktplatzbrunnen Altomünster","Rathaus Altomünster","Altomünster Pferde Statue","Birgittenkloster","Marienstein"],
"portalTypeNum": [1,1,1,1,1,1,1,1,1],
"portalObjectiveNum": [2,1,1,1,1,2,1,1,1],
"id": 41
},
"geometry": {
"type": "LineString",
"coordinates": [
[
11.254506,48.385532
]
,[
11.253872,48.386547
]
,[
11.255341,48.387302
]
,[
11.255994,48.387596
]
,[
11.256392,48.387617
]
,[
11.256719,48.387527
]
,[
11.258099,48.387695
]
,[
11.25794,48.388098
]
,[
11.258686,48.388449
]
]
}
},

{"type": "Feature",
"properties":{
"time": 1473504129790,
"guid": "e2717cbe7ee14edba8d669fb1a68d0cd.1c",
"title": "The Shapers Eye 9/18 Missionsgebiet: Erdweg",
"description": "Altomünster hat neue Hinweise ergeben. Hier wurden die Shapers von Einheimischen gesehen. Sie haben noch einen Vorsprung, aber nicht mehr lange...",
"author":"Sturmgrimm",
"authorTeam": "E",
"ratingE6": 750000,
"medianCompletionTimeMs": 1541635,
"numUniqueCompletedPlayers": 16,
"typeNumMission": 2,
"image": "https://lh3.googleusercontent.com/hJpDPgLWyTi6681mhYw5WPr9JoKhZkHmA5s27Udbl4P_Lsf3idIdsn5QE4baX45qbpJfjcW7FVhrlvn5eoz4xA",
"portalTitle": ["Mond über dem Glonntal","Grossberghofener Kriegsdenkmal","Grossberghofener Maibaum","Huttermuseum","Kreuz Grossberghofen","Grotte Grossberghofen"],
"portalTypeNum": [1,1,1,1,1,1],
"portalObjectiveNum": [1,1,1,1,1,1],
"id": 41
},
"geometry": {
"type": "LineString",
"coordinates": [
[
11.290598,48.324043
]
,[
11.313905,48.32143
]
,[
11.314974,48.321809
]
,[
11.3125,48.321343
]
,[
11.317701,48.318295
]
,[
11.322391,48.324874
]
]
}
},

{"type": "Feature",
"properties":{
"time": 1473504147001,
"guid": "bfebfa4ede3645108b6e026cd1cc2618.1c",
"title": "The Shapers Eye 10/18 Missionsgebiet: Indersdorf",
"description": "Erdweg war eine Sackgasse. Ihr versucht euer Glück in Markt Indersdorf. Irgendwo muß es Hinweise geben. Sie können nicht weit entfernt sein.",
"author":"Sturmgrimm",
"authorTeam": "E",
"ratingE6": 785714,
"medianCompletionTimeMs": 1233271,
"numUniqueCompletedPlayers": 16,
"typeNumMission": 2,
"image": "https://lh3.googleusercontent.com/1hdZZqIQI6ef_ExserXrdBeEFvAmF_H1uuevq_5B3ZD5XppQYmB4K2iFHMBs3wIi15RlXQbczdz3RH3ltPZ2",
"portalTitle": ["Alter Brunnen","Maibaum","Brunnen","Marienkapelle","Bartholomäuskirche","Metzgerstatue Forche","Old Miniatur House","Old Post Office","Man with Child"],
"portalTypeNum": [1,1,1,1,1,1,1,1,1],
"portalObjectiveNum": [1,1,1,1,1,1,1,1,1],
"id": 41
},
"geometry": {
"type": "LineString",
"coordinates": [
[
11.37388,48.361816
]
,[
11.37335,48.361043
]
,[
11.378026,48.360537
]
,[
11.374749,48.359901
]
,[
11.374207,48.360293
]
,[
11.375153,48.361241
]
,[
11.376088,48.361478
]
,[
11.377251,48.360873
]
,[
11.379283,48.360293
]
]
}
},

{"type": "Feature",
"properties":{
"time": 1473504151210,
"guid": "3a9890aa2b2b4c1fa187e7022fc61d83.1c",
"title": "The Shapers Eye 11/18 Missionsgebiet: Indersdorf",
"description": "Endlich habt ihr eine heiße Spur. Erst vor kurzem sind sie hier gewesen. Wenn ihr sie einholen wollt, müsst ihr euch beeilen... wir bleiben in Markt Indersdorf",
"author":"Sturmgrimm",
"authorTeam": "E",
"ratingE6": 722222,
"medianCompletionTimeMs": 508602,
"numUniqueCompletedPlayers": 19,
"typeNumMission": 2,
"image": "https://lh3.googleusercontent.com/jgra9l0gg1l7At1HhvkqAIeJ_0nXuZp6wELgSnozHPnPw8BWyBvYEjiMju6TvSyC8KxsM7eHev-nxfXNLAkKbg",
"portalTitle": ["Markstein Aus Der Klosterzeit 1750","Wooden Faces","Heilige Petrusbank","Mini Totem","Wegkreuz","Skandinavische Birken","Brunnenbuberl"],
"portalTypeNum": [1,1,1,1,1,1,1],
"portalObjectiveNum": [1,1,1,1,1,1,1],
"id": 41
},
"geometry": {
"type": "LineString",
"coordinates": [
[
11.37993,48.359525
]
,[
11.380113,48.359236
]
,[
11.380381,48.359044
]
,[
11.380056,48.359011
]
,[
11.380229,48.35883
]
,[
11.380513,48.3584
]
,[
11.380781,48.358177
]
]
}
},

{"type": "Feature",
"properties":{
"time": 1473504157219,
"guid": "be2969e601b44e5fa7055058c5789125.1c",
"title": "The Shapers Eye 12/18 Missionsgebiet: Indersdorf",
"description": "Immer noch in Markt Indersdorf.",
"author":"Sturmgrimm",
"authorTeam": "E",
"ratingE6": 764706,
"medianCompletionTimeMs": 551977,
"numUniqueCompletedPlayers": 17,
"typeNumMission": 2,
"image": "https://lh3.googleusercontent.com/UTfT-rlkdE4A4P1XI1D1I6F9gqLbS8CrxlpCP6TFvV7wUuU3i0zKU2nCy2MWn_ZABf3Z0tfqsh6LBVvijjI",
"portalTitle": ["Gasthof Funk","Schneider Turm","Klosterkirche Mariä Himmelfahrt","Brunnen Jungfrau Und Mutter","Holy Jesus","Alter Friedhof"],
"portalTypeNum": [1,1,1,1,1,1],
"portalObjectiveNum": [1,1,1,1,1,1],
"id": 41
},
"geometry": {
"type": "LineString",
"coordinates": [
[
11.381865,48.358017
]
,[
11.382751,48.357768
]
,[
11.382989,48.35729
]
,[
11.383028,48.356597
]
,[
11.38773,48.354919
]
,[
11.392231,48.355485
]
]
}
},

{"type": "Feature",
"properties":{
"time": 1473504162293,
"guid": "19cf3a6dfd114481b2900bcf83d0d71f.1c",
"title": "The Shapers Eye 13/18 Missionsgebiet: Großinzemoos",
"description": "Ihr habt nun viel über die Shaper erfahren. Ihr wisst nun was sie vor haben und wohin sie wollen. Ihr bleibt ihnen dicht auf den Fersen: Groß-/Kleininzemoos",
"author":"Sturmgrimm",
"authorTeam": "E",
"ratingE6": 800000,
"medianCompletionTimeMs": 917584,
"numUniqueCompletedPlayers": 16,
"typeNumMission": 2,
"image": "https://lh3.googleusercontent.com/QsTd1PivOQkebtx94oBJHsJl7V0aIoCe7cwFBhe4vfOPyXkYWZs3ThZn_zwWVVcXl1Tulse4FXWUMAV8VNw",
"portalTitle": ["Wegkreuz Grossinzemoos","Kirche Großinzemoos","Wegkreuz Beim Brummer","Maibaum Großinzemoos","Heiliges Kreuz","Vogelhaus Kleininzemoos","Kirche St. Margareth"],
"portalTypeNum": [1,1,1,1,1,1,1],
"portalObjectiveNum": [1,1,1,1,1,1,1],
"id": 41
},
"geometry": {
"type": "LineString",
"coordinates": [
[
11.427378,48.340964
]
,[
11.424791,48.337396
]
,[
11.42686,48.337681
]
,[
11.427306,48.337582
]
,[
11.439181,48.33377
]
,[
11.439986,48.333335
]
,[
11.440301,48.333115
]
]
}
},

{"type": "Feature",
"properties":{
"time": 1473504165587,
"guid": "63ce94e2829f451db34376bf49cf72fc.1c",
"title": "The Shapers Eye 14/18 Missionsgebiet: Röhrmoos",
"description": "Ihr könnt sie förmlich schon riechen. Ihr Vorsprung schrumpft mit jedem Schritt den ihr macht. Bald habt ihr sie eingeholt.",
"author":"Sturmgrimm",
"authorTeam": "E",
"ratingE6": 666667,
"medianCompletionTimeMs": 957931,
"numUniqueCompletedPlayers": 16,
"typeNumMission": 2,
"image": "https://lh3.googleusercontent.com/hygBFbb9eAc7yGSJPla4agP6YSfjtbQ9qvgSOCpc2T0w_FxEpyBt7YRluTE4srkglddk4LW9AuqFG3wQA1Q",
"portalTitle": ["Bauarbeiter Graffiti","S-Bahn Röhrmoos","Kunst","Bücherei Röhrmoos","Gemeinde Röhrmoos","Kriegerdenkmal Röhrmoos","Röhrmooser Pfarrheim","Dicker Heiliger"],
"portalTypeNum": [1,1,1,1,1,1,1,1],
"portalObjectiveNum": [1,1,1,1,1,1,1,1],
"id": 41
},
"geometry": {
"type": "LineString",
"coordinates": [
[
11.444165,48.333594
]
,[
11.444639,48.333313
]
,[
11.445718,48.332043
]
,[
11.446162,48.331793
]
,[
11.445884,48.331608
]
,[
11.459327,48.32794
]
,[
11.458889,48.327777
]
,[
11.459054,48.327633
]
]
}
},

{"type": "Feature",
"properties":{
"time": 1473504218375,
"guid": "a0f6dc60bec34895b71fef12f8ca001b.1c",
"title": "The Shapers Eye 15/18 Missionsgebiet: Ampermoching",
"description": "Weiter, die Zeit drängt...",
"author":"Sturmgrimm",
"authorTeam": "E",
"ratingE6": 571429,
"medianCompletionTimeMs": 856452,
"numUniqueCompletedPlayers": 16,
"typeNumMission": 2,
"image": "https://lh3.googleusercontent.com/Q0lCTTy866GIzSDuizBzZvTz2doTiA6ms1aGBGwNyl_7cbry9wfXNak6OEdvXCn4gzTnXVoeys0T_muOdSfn",
"portalTitle": ["Kirche","Familienbank","Kriegerdenkmal","Weltkriegsdenkmal","Kugelbrunnen","Kruzifix In Ampermoching","Mini Schrein"],
"portalTypeNum": [1,1,1,1,1,1,1],
"portalObjectiveNum": [1,1,1,1,1,1,1],
"id": 41
},
"geometry": {
"type": "LineString",
"coordinates": [
[
11.486643,48.306347
]
,[
11.486216,48.305565
]
,[
11.486819,48.305743
]
,[
11.48824,48.305274
]
,[
11.488254,48.304455
]
,[
11.490102,48.303249
]
,[
11.490738,48.303239
]
]
}
},

{"type": "Feature",
"properties":{
"time": 1473504221124,
"guid": "ce20a6aa28284a08aba21c1b25703727.1c",
"title": "The Shapers Eye 16/18 Missionsgebiet:Hebertshausen",
"description": "Ihr habt es fast geschafft. Sie sind vor wenigen Minuten hier durch gekommen.",
"author":"Sturmgrimm",
"authorTeam": "E",
"ratingE6": 733333,
"medianCompletionTimeMs": 403100,
"numUniqueCompletedPlayers": 17,
"typeNumMission": 2,
"image": "https://lh3.googleusercontent.com/eNaKNt7T5ICIUylng9igkVfIZFiZnPUG5QkBoq0l1xelHdM_A8SY5YKgwk9AiVZrhHLnkOoaNYnWncE9DzeR",
"portalTitle": ["Maibaum","Weltkriegsdenkmal","Kirche - Hebertshausen","1200 Jahre Hebertshausen","Totempfahl","Denkmal 3 Kreuze"],
"portalTypeNum": [1,1,1,1,1,1],
"portalObjectiveNum": [1,1,1,1,1,1],
"id": 41
},
"geometry": {
"type": "LineString",
"coordinates": [
[
11.469436,48.290829
]
,[
11.469716,48.291111
]
,[
11.470591,48.291274
]
,[
11.471433,48.291216
]
,[
11.471082,48.291742
]
,[
11.468448,48.292626
]
]
}
},

{"type": "Feature",
"properties":{
"time": 1473504253272,
"guid": "3dca06baf8354bddb7fd02b9492c2046.1c",
"title": "The Shapers Eye 17/18 Missionsgebiet: Dachau",
"description": "Sie wollen flüchten. Aber das müsst ihr verhindern. Ihr wollt sie sehen!! Ihr wollt ihnen Fragen stellen. Sie befinden sich gerade im Stadtgebiet Dachau",
"author":"Sturmgrimm",
"authorTeam": "E",
"ratingE6": 750000,
"medianCompletionTimeMs": 767616,
"numUniqueCompletedPlayers": 17,
"typeNumMission": 2,
"image": "https://lh3.googleusercontent.com/1LqvSJXRp6HxHY9aDYMnG5vLeea8jD1uW4h_vjVTz6mfjkI0kgIrusWgKjbP2VfD1aj7kYPJ6y4WFiqgjQdcDg",
"portalTitle": ["Etzenhausener Kapelle","Bahnhof Dachau Stadt","Pilot mit übergroßem Kinn","Graffiti-Wall Dachau - Rasta DJ","Mighty Murat Mural","Steinbrunnen Rathausapotheke ","Frau mit Herz aus Gold"],
"portalTypeNum": [1,1,1,1,1,1,1],
"portalObjectiveNum": [1,1,1,1,1,1,1],
"id": 41
},
"geometry": {
"type": "LineString",
"coordinates": [
[
11.440266,48.270306
]
,[
11.439827,48.266418
]
,[
11.439641,48.265329
]
,[
11.439076,48.264968
]
,[
11.438539,48.264824
]
,[
11.433442,48.262978
]
,[
11.431905,48.262011
]
]
}
},

{"type": "Feature",
"properties":{
"time": 1473504270784,
"guid": "65cc0ddfa16e44c59d6011a2611bb12a.1c",
"title": "The Shapers Eye 18/18 Missionsgebiet: Dachau",
"description": "Da sind sie - Die Shaper! Ihr habt sie durch den Landkreis Dachau verfolgt. Und nun stehen sie vor euch. Und einer von ihnen schaut euch TIEF IN DIE AUGEN... Dann verschwinden sie spurlos.",
"author":"Sturmgrimm",
"authorTeam": "E",
"ratingE6": 894737,
"medianCompletionTimeMs": 285304,
"numUniqueCompletedPlayers": 20,
"typeNumMission": 2,
"image": "https://lh3.googleusercontent.com/7vITf8mGmYTfBDDknM_8w8tb9PyP9S5NzvZiafpAlOnmvxjt2zkqDUH_ilR0z1qjxgH7GWFn4AKropOqz2MIYQ",
"portalTitle": ["Heiliger Lukas","Ureinwohnerin Bayerns","Augsburger Tor","Wasserbrunnen Wieninger","Glocken","Rückkirche"],
"portalTypeNum": [1,1,1,1,1,1],
"portalObjectiveNum": [1,1,1,1,1,2],
"id": 41
},
"geometry": {
"type": "LineString",
"coordinates": [
[
11.432167,48.261534
]
,[
11.432257,48.261034
]
,[
11.432677,48.260189
]
,[
11.432923,48.260012
]
,[
11.433487,48.259671
]
,[
11.434022,48.259532
]
]
}
}]}