{"type":"FeatureCollection","features":[{"type": "Feature",
"properties":{
"time": 1473311480374,
"guid": "9e84e4117a3e4af18d7d816b5a108754.1c",
"title": "Sound & Vision 1/54",
"description": "Your journey will take you through three beautiful towns of Bavaria. Please enjoy the views and our historical towns.",
"author":"Quozzy",
"authorTeam": "R",
"ratingE6": 941176,
"medianCompletionTimeMs": 507536,
"numUniqueCompletedPlayers": 17,
"typeNumMission": 1,
"image": "https://lh3.googleusercontent.com/drC_Nc0riHp4jkLo6HLYNhW_whTLypjeTP6aj-b97bhgtR2XN00lrdYP4ucUb67m87ZCPb7GhzFGy1zUOqTp",
"portalTitle": ["Baumrindenspiel","Insekten Hotel","Wechselkroete","Extensiv Wiese","Trockenmauer","Feldgehölze"],
"portalTypeNum": [1,1,1,1,1,1],
"portalObjectiveNum": [1,1,1,1,1,1],
"id": 14
},
"geometry": {
"type": "LineString",
"coordinates": [
[
11.658516,48.199911
]
,[
11.657867,48.199562
]
,[
11.65847,48.199203
]
,[
11.658171,48.19913
]
,[
11.657999,48.198623
]
,[
11.657418,48.198952
]
]
}
},

{"type": "Feature",
"properties":{
"time": 1473311485952,
"guid": "4482a7d4febb449284cc10f80078776f.1c",
"title": "Sound & Vision 2/54",
"description": "Your journey will take you through three beautiful towns of Bavaria. Please enjoy the views and our historical towns.",
"author":"Quozzy",
"authorTeam": "R",
"ratingE6": 894737,
"medianCompletionTimeMs": 258010,
"numUniqueCompletedPlayers": 19,
"typeNumMission": 1,
"image": "https://lh3.googleusercontent.com/begf1IN6sf6yK4YAgSKjPzX_JixVe4e3KoHdLH0Vm9lbBDRtDpNz6uKPAsIX6R171eEXYLTD5oOYY7xYNE8",
"portalTitle": ["Natürliche Vegetation","Landschaftsgeschichte Geologie","Naturlehrpfad Unterföhring","S-Bahn Tunnel","Evangelische Rafaelkirche","Feringasee"],
"portalTypeNum": [1,1,1,1,1,1],
"portalObjectiveNum": [1,1,1,1,1,1],
"id": 14
},
"geometry": {
"type": "LineString",
"coordinates": [
[
11.657675,48.198642
]
,[
11.656818,48.198704
]
,[
11.656422,48.198493
]
,[
11.65527,48.198215
]
,[
11.654596,48.197669
]
,[
11.654511,48.197423
]
]
}
},

{"type": "Feature",
"properties":{
"time": 1473311489152,
"guid": "1917f83b9c8e4adda5a58d48f53b49c9.1c",
"title": "Sound & Vision 3/54",
"description": "Your journey will take you through three beautiful towns of Bavaria. Please enjoy the views and our historical towns.",
"author":"Quozzy",
"authorTeam": "R",
"ratingE6": 950000,
"medianCompletionTimeMs": 339955,
"numUniqueCompletedPlayers": 21,
"typeNumMission": 1,
"image": "https://lh3.googleusercontent.com/TJ7_Q-OtzGx4R4fI7uYgWg3ISgfDXNaVU_fmoby-7mWdspH1y4YmNo2op7xcckCmQE2qMtI-oylS7QtV7vsF",
"portalTitle": ["Zerstörung und Wiederaufbau","Spielplatz Ahornstraße","Die Heimat Vertriebenen","Wasser Leitung","Erste Eisenbahn","Moor Kultivierung"],
"portalTypeNum": [1,1,1,1,1,1],
"portalObjectiveNum": [1,1,1,1,1,2],
"id": 14
},
"geometry": {
"type": "LineString",
"coordinates": [
[
11.653096,48.196619
]
,[
11.652609,48.196322
]
,[
11.652546,48.196006
]
,[
11.651838,48.195589
]
,[
11.651327,48.195048
]
,[
11.650388,48.194461
]
]
}
},

{"type": "Feature",
"properties":{
"time": 1473311493841,
"guid": "3568906d9a36458da848bc0d0e39b0f9.1c",
"title": "Sound & Vision 4/54",
"description": "Your journey will take you through three beautiful towns of Bavaria. Please enjoy the views and our historical towns.",
"author":"Quozzy",
"authorTeam": "R",
"ratingE6": 944444,
"medianCompletionTimeMs": 199988,
"numUniqueCompletedPlayers": 20,
"typeNumMission": 1,
"image": "https://lh3.googleusercontent.com/LxJpWcKu-fc70a-URpdUiFKXktSfDPeZ8sPoOFNvx4GPRtQT6laoHjI-g9XiY34VQcKiS6HXFgrbdhVc5A0wRQ",
"portalTitle": ["Gründung Feuerwehr","Graffiti Nelkenstraße","Spät Heimkehrer","Föhringer Tage","Unterföhringer Kreuz","Barock Kirche"],
"portalTypeNum": [1,1,1,1,1,1],
"portalObjectiveNum": [1,1,1,1,1,1],
"id": 14
},
"geometry": {
"type": "LineString",
"coordinates": [
[
11.650301,48.194109
]
,[
11.65006,48.194025
]
,[
11.649303,48.193512
]
,[
11.649051,48.193282
]
,[
11.649097,48.193064
]
,[
11.648701,48.193037
]
]
}
},

{"type": "Feature",
"properties":{
"time": 1473311501125,
"guid": "c9060586e9944947a9b81f198be2ad0b.1c",
"title": "Sound & Vision 5/54",
"description": "Your journey will take you through three beautiful towns of Bavaria. Please enjoy the views and our historical towns.",
"author":"Quozzy",
"authorTeam": "R",
"ratingE6": 850000,
"medianCompletionTimeMs": 187383,
"numUniqueCompletedPlayers": 22,
"typeNumMission": 1,
"image": "https://lh3.googleusercontent.com/IgvLk72ef6ivt9vFUe1fUMqeauc3u57K9K_GTcKa8bpP0OvDN3b_UiK1jFu19dA-zgMiRTk-h-padZSwTAI",
"portalTitle": ["Gedenkstein ","Meilensteine der Geschichte","Hexen Verbrennung","Bajuwaren Riese 650","Römer- und Salzstrasse","Wegweiser"],
"portalTypeNum": [1,1,1,1,1,1],
"portalObjectiveNum": [1,1,1,1,1,2],
"id": 14
},
"geometry": {
"type": "LineString",
"coordinates": [
[
11.648552,48.192679
]
,[
11.648345,48.192476
]
,[
11.648252,48.192294
]
,[
11.647946,48.19207
]
,[
11.647754,48.191807
]
,[
11.647743,48.191583
]
]
}
},

{"type": "Feature",
"properties":{
"time": 1473311505415,
"guid": "3b2d37d0b41e43f397a27bbbca09fa0e.1c",
"title": "Sound & Vision 6/54",
"description": "Your journey will take you through three beautiful towns of Bavaria. Please enjoy the views and our historical towns.",
"author":"Quozzy",
"authorTeam": "R",
"ratingE6": 850000,
"medianCompletionTimeMs": 466325,
"numUniqueCompletedPlayers": 20,
"typeNumMission": 1,
"image": "https://lh3.googleusercontent.com/gl37drMoNsr4oFmfVPwZn2o50LY-YaSlbMDLIWGskOzMAdZIu_Bw9SRhJGR0ILygVz0ziwZfJBh-57gmV03P",
"portalTitle": ["Westhang","Madonna Mit Kind","Buntes Haus","S8 Unterföhring","Die etwas andere Treppe ","Feringa Sach"],
"portalTypeNum": [1,1,1,1,1,1],
"portalObjectiveNum": [1,1,1,1,1,1],
"id": 14
},
"geometry": {
"type": "LineString",
"coordinates": [
[
11.647359,48.191364
]
,[
11.647045,48.191175
]
,[
11.646568,48.190822
]
,[
11.646814,48.19024
]
,[
11.645096,48.191465
]
,[
11.64367,48.191734
]
]
}
},

{"type": "Feature",
"properties":{
"time": 1473311511353,
"guid": "280d122914114e70a0865d9e6ff1ea9a.1c",
"title": "Sound & Vision 7/54",
"description": "Your journey will take you through three beautiful towns of Bavaria. Please enjoy the views and our historical towns.",
"author":"Quozzy",
"authorTeam": "R",
"ratingE6": 863636,
"medianCompletionTimeMs": 545833,
"numUniqueCompletedPlayers": 22,
"typeNumMission": 1,
"image": "https://lh3.googleusercontent.com/Ziq-lzcyjUmuENmVbb6LEhCtCrOhDk8QoEsjRHrn5vW65I8M7C9pjwb9mZ0wFArbnrqMNFmmBpZ-F8fMs2rF",
"portalTitle": ["Tribut Hochzeit Kegelkameraden","Unterfohring Gemeinde Brunnen","St Valentin Brunnen","Christos at St. Valentin-weg","Stone Crocodile","St. Valentin Hof Brunnen"],
"portalTypeNum": [1,1,1,1,1,1],
"portalObjectiveNum": [1,1,1,1,1,2],
"id": 14
},
"geometry": {
"type": "LineString",
"coordinates": [
[
11.642452,48.191536
]
,[
11.641516,48.191471
]
,[
11.64156,48.190439
]
,[
11.641926,48.190153
]
,[
11.642327,48.190073
]
,[
11.64062,48.189078
]
]
}
},

{"type": "Feature",
"properties":{
"time": 1473311520872,
"guid": "d67e5e0cb9de41a88905e6fa72182267.1c",
"title": "Sound & Vision 8/54",
"description": "Your journey will take you through three beautiful towns of Bavaria. Please enjoy the views and our historical towns.",
"author":"Quozzy",
"authorTeam": "R",
"ratingE6": 818182,
"medianCompletionTimeMs": 759311,
"numUniqueCompletedPlayers": 22,
"typeNumMission": 1,
"image": "https://lh3.googleusercontent.com/s3OfClbH2HE4pBL51A5flDryyN6ZsStih3znVyNfhOCKaz2VyV7flJhFEZxjVbi_TnxO_gm3HA4hFM6j3Ng",
"portalTitle": ["Brunnbachl","Spielplatz Brunnbachlweg","Spielplatz Kinderhaus","Dampfschiff","Unterfohring Bürgerhaus Kugel","Flachbrunnen"],
"portalTypeNum": [1,1,1,1,1,1],
"portalObjectiveNum": [1,1,1,1,1,1],
"id": 14
},
"geometry": {
"type": "LineString",
"coordinates": [
[
11.64109,48.187914
]
,[
11.639223,48.188286
]
,[
11.637875,48.187059
]
,[
11.637329,48.187478
]
,[
11.639581,48.191057
]
,[
11.639778,48.191733
]
]
}
},

{"type": "Feature",
"properties":{
"time": 1473311533267,
"guid": "98276fd518ec43c4919e73614a1c0608.1c",
"title": "Sound & Vision 9/54",
"description": "Your journey will take you through three beautiful towns of Bavaria. Please enjoy the views and our historical towns.",
"author":"Quozzy",
"authorTeam": "R",
"ratingE6": 909091,
"medianCompletionTimeMs": 388445,
"numUniqueCompletedPlayers": 21,
"typeNumMission": 1,
"image": "https://lh3.googleusercontent.com/tf8hkhWA0xM9JKTdaB9HiM4zGFEYcKmuyRxihypC974uond-uZfOrhJ7-gF1pkwP1dOlm_jW2ZrqyVw4xXch",
"portalTitle": ["Unterfohring Rathaus Brunnen","Unterfohring Gemeinde Kugel","Unterfohring May Tree","Unterfohring Gemeinde Pfarrhaus","Kriegs Gedenk Säule Unterföhring ","Der Gockel"],
"portalTypeNum": [1,1,1,1,1,1],
"portalObjectiveNum": [1,1,1,1,1,2],
"id": 14
},
"geometry": {
"type": "LineString",
"coordinates": [
[
11.640515,48.19181
]
,[
11.640969,48.192042
]
,[
11.640202,48.192076
]
,[
11.640321,48.192463
]
,[
11.64058,48.192662
]
,[
11.640421,48.193056
]
]
}
},

{"type": "Feature",
"properties":{
"time": 1473311537460,
"guid": "a961d94d76fa41a58f3e40d4380163d1.1c",
"title": "Sound & Vision 10/54",
"description": "Your journey will take you through three beautiful towns of Bavaria. Please enjoy the views and our historical towns.",
"author":"Quozzy",
"authorTeam": "R",
"ratingE6": 904762,
"medianCompletionTimeMs": 596732,
"numUniqueCompletedPlayers": 22,
"typeNumMission": 1,
"image": "https://lh3.googleusercontent.com/W1YfEp4QZsoJrvR3DGzIzP5lm43kgTsJqp2qe8fncs5wrflKwPn0Bh1x-teF2R1cJMlLVqBL4THMeiiZuxi6AA",
"portalTitle": ["Turm Eiscafe Momolulu","Hotel Lechnerhof","Lechnerhof Brunnen","Biergarten Gasthof Zur Post","Historisches Museum Unterfohring Feuerhaus","Wandbild Maria"],
"portalTypeNum": [1,1,1,1,1,1],
"portalObjectiveNum": [1,1,1,1,1,1],
"id": 14
},
"geometry": {
"type": "LineString",
"coordinates": [
[
11.641032,48.193284
]
,[
11.64059,48.19402
]
,[
11.641196,48.193984
]
,[
11.641745,48.193754
]
,[
11.642619,48.19456
]
,[
11.646579,48.197038
]
]
}
},

{"type": "Feature",
"properties":{
"time": 1473311549677,
"guid": "fff1910aa47449369df547d11f9b5641.1c",
"title": "Sound & Vision 11/54",
"description": "Your journey will take you through three beautiful towns of Bavaria. Please enjoy the views and our historical towns.",
"author":"Quozzy",
"authorTeam": "R",
"ratingE6": 772727,
"medianCompletionTimeMs": 1042179,
"numUniqueCompletedPlayers": 20,
"typeNumMission": 1,
"image": "https://lh3.googleusercontent.com/w0BaoBBKp0g7ZFTGr2a3aD0tbw8WwkE5gKmRoWH8LEOOO8THxR6AyL7pw3pjTsL1pGDopAC6i0wTKJ1VWwh8oQ",
"portalTitle": ["Brunnen im Ahornpark ","Die bunte Kugel","Friedhof Unterföhring","Spielplatz","Holzpilz","Maibaum ASV"],
"portalTypeNum": [1,1,1,1,1,1],
"portalObjectiveNum": [1,1,1,1,1,2],
"id": 14
},
"geometry": {
"type": "LineString",
"coordinates": [
[
11.650456,48.196885
]
,[
11.649961,48.1978
]
,[
11.649531,48.199273
]
,[
11.652494,48.199431
]
,[
11.651354,48.200184
]
,[
11.648236,48.202145
]
]
}
},

{"type": "Feature",
"properties":{
"time": 1473311553339,
"guid": "8be8d6345c2944cfb5b618ff3876636b.1c",
"title": "Sound & Vision 12/54",
"description": "Your journey will take you through three beautiful towns of Bavaria. Please enjoy the views and our historical towns.",
"author":"Quozzy",
"authorTeam": "R",
"ratingE6": 875000,
"medianCompletionTimeMs": 575449,
"numUniqueCompletedPlayers": 15,
"typeNumMission": 1,
"image": "https://lh3.googleusercontent.com/78qzCPXyJa2jVGnO9NjZq7YkDFWJdpWLDPQpvyWIXijvkMbOF1De2l8PpSGjCNFfBLhNgjq9cUPxieevQTsVew",
"portalTitle": ["Agrob A","Cross Agrop","Agrob Casino","Hideout","Agrob Sphere","Agrob Big Tower "],
"portalTypeNum": [1,1,1,1,1,1],
"portalObjectiveNum": [1,1,1,1,1,1],
"id": 14
},
"geometry": {
"type": "LineString",
"coordinates": [
[
11.655619,48.208298
]
,[
11.655705,48.208835
]
,[
11.657081,48.209144
]
,[
11.658588,48.207959
]
,[
11.659592,48.208825
]
,[
11.659356,48.209226
]
]
}
},

{"type": "Feature",
"properties":{
"time": 1473311558420,
"guid": "d9c170e5973f44bc8faa0ac723d3c2b2.1c",
"title": "Sound & Vision 13/54",
"description": "Your journey will take you through three beautiful towns of Bavaria. Please enjoy the views and our historical towns.",
"author":"Quozzy",
"authorTeam": "R",
"ratingE6": 933333,
"medianCompletionTimeMs": 1267676,
"numUniqueCompletedPlayers": 15,
"typeNumMission": 1,
"image": "https://lh3.googleusercontent.com/nTeodet6TIzZpupFbjGmPIG8IV4xVDlDvqUaC9O22nVOXn2iHx9MKAnG4adDrUdKoxp7FmZCQe_4o5ffkYE",
"portalTitle": ["Agrob - Information Board","Circle Ismaning ","Small Chapel","Hexagon Monument","Water Tower in Ismaning","Sexauer Lettuce Head"],
"portalTypeNum": [1,1,1,1,1,1],
"portalObjectiveNum": [1,1,1,1,1,2],
"id": 14
},
"geometry": {
"type": "LineString",
"coordinates": [
[
11.660904,48.210991
]
,[
11.658267,48.21194
]
,[
11.655038,48.21217
]
,[
11.662777,48.220968
]
,[
11.66619,48.220674
]
,[
11.669353,48.220081
]
]
}
},

{"type": "Feature",
"properties":{
"time": 1473311584171,
"guid": "1e463c3dc52046b2aaf561404fb2a7a2.1c",
"title": "Sound & Vision 14/54",
"description": "Your journey will take you through three beautiful towns of Bavaria. Please enjoy the views and our historical towns.",
"author":"Quozzy",
"authorTeam": "R",
"ratingE6": 866667,
"medianCompletionTimeMs": 535160,
"numUniqueCompletedPlayers": 15,
"typeNumMission": 1,
"image": "https://lh3.googleusercontent.com/-k0eqqVGzeW9j_va-W6ZQIs5s-LqaAr7FP96hFv23pbaDM4W0uIaZMYKaBzzEPnTpxcbDDBxDmLPpqTXoAA",
"portalTitle": ["Children's May Tree","Star Shine Lettuce Head","Bürgerschaft Landespflege ","Chessfield","Bürgerpark","Marienschrein"],
"portalTypeNum": [1,1,1,1,1,1],
"portalObjectiveNum": [1,1,1,1,1,1],
"id": 14
},
"geometry": {
"type": "LineString",
"coordinates": [
[
11.670237,48.218588
]
,[
11.669129,48.218438
]
,[
11.670003,48.216154
]
,[
11.669738,48.215962
]
,[
11.670706,48.21547
]
,[
11.671394,48.215809
]
]
}
},

{"type": "Feature",
"properties":{
"time": 1473311628483,
"guid": "0bb6ca8148054a15bf0246cf50662df0.1c",
"title": "Sound & Vision 15/54",
"description": "Your journey will take you through three beautiful towns of Bavaria. Please enjoy the views and our historical towns.",
"author":"Quozzy",
"authorTeam": "R",
"ratingE6": 928571,
"medianCompletionTimeMs": 1147961,
"numUniqueCompletedPlayers": 15,
"typeNumMission": 1,
"image": "https://lh3.googleusercontent.com/02rzqLBP6_ZD-_Kt48WPIHRrbWDuOV8JHoysLDYAZfFYY3wjrdLE82kyEpBm-eVnKzyvl2fGOgthnF5X25BB",
"portalTitle": ["Heckenkunstwerk Rebhuhnstraße","Grünzug","Bannwald Taxet","Eisweiher Fish","Owl Lettuce Head","Kleingartenverein Am Seebach"],
"portalTypeNum": [1,1,1,1,1,1],
"portalObjectiveNum": [1,1,1,1,1,2],
"id": 14
},
"geometry": {
"type": "LineString",
"coordinates": [
[
11.672543,48.215466
]
,[
11.676447,48.216418
]
,[
11.677453,48.215168
]
,[
11.678288,48.215569
]
,[
11.684061,48.214031
]
,[
11.683257,48.214136
]
]
}
},

{"type": "Feature",
"properties":{
"time": 1473311632401,
"guid": "00db424ece68438dae693f771407a86e.1c",
"title": "Sound & Vision 16/54",
"description": "Your journey will take you through three beautiful towns of Bavaria. Please enjoy the views and our historical towns.",
"author":"Quozzy",
"authorTeam": "R",
"ratingE6": 800000,
"medianCompletionTimeMs": 1262835,
"numUniqueCompletedPlayers": 15,
"typeNumMission": 1,
"image": "https://lh3.googleusercontent.com/zxIhx9okBVudRKh00OEPRgSStma02z5cfmzM8K4Gyg06kFgD2ZqijANXDVDKzdMb9Iv4bIgOqMgN4W7-OZCmYQ",
"portalTitle": ["König Ludwig","Wasserwege Ismaning","Wood Wave","Wooden Monument","Lime Green Lettuce Head","Golden lettuce head"],
"portalTypeNum": [1,1,1,1,1,1],
"portalObjectiveNum": [1,1,1,1,1,1],
"id": 14
},
"geometry": {
"type": "LineString",
"coordinates": [
[
11.683015,48.213853
]
,[
11.682334,48.213739
]
,[
11.678653,48.212173
]
,[
11.675887,48.212596
]
,[
11.680935,48.216396
]
,[
11.679688,48.216297
]
]
}
},

{"type": "Feature",
"properties":{
"time": 1473311635710,
"guid": "b138c36a387b442092a1a196cb51eadb.1c",
"title": "Sound & Vision 17/54",
"description": "Your journey will take you through three beautiful towns of Bavaria. Please enjoy the views and our historical towns.",
"author":"Quozzy",
"authorTeam": "R",
"ratingE6": 866667,
"medianCompletionTimeMs": 228798,
"numUniqueCompletedPlayers": 15,
"typeNumMission": 1,
"image": "https://lh3.googleusercontent.com/-wOCiX9LCybH4zLxqXLZBN9_ATVYbGY10bf0LXkKGAFDCDuD--bThpE2I41X4AO97HeWkmOefiCz6Dh4RFZDWg",
"portalTitle": ["Café Konditorei","Café Waldeck","Lion King","Handwerk Lettuce Head","Eistüte Ismaning","Zeitreise Der Knaller Hof"],
"portalTypeNum": [1,1,1,1,1,1],
"portalObjectiveNum": [1,1,1,1,1,2],
"id": 14
},
"geometry": {
"type": "LineString",
"coordinates": [
[
11.67545,48.218973
]
,[
11.675189,48.219358
]
,[
11.674102,48.219645
]
,[
11.67444,48.220007
]
,[
11.674004,48.220261
]
,[
11.672991,48.221302
]
]
}
},

{"type": "Feature",
"properties":{
"time": 1473311662169,
"guid": "ffe85edf6e034491b902ef8c379aa61b.1c",
"title": "Sound & Vision 18/54",
"description": "Your journey will take you through three beautiful towns of Bavaria. Please enjoy the views and our historical towns.",
"author":"Quozzy",
"authorTeam": "R",
"ratingE6": 933333,
"medianCompletionTimeMs": 462476,
"numUniqueCompletedPlayers": 15,
"typeNumMission": 1,
"image": "https://lh3.googleusercontent.com/lQAfJMOgwV0fs71_UsxtBpZcq3kXy2POsii5uFjNrchtiEXEU5Y_CjcfTirNi7AmEJcB_oxEn8HH1M3ZDiA",
"portalTitle": ["Knaller Lettuce Head","DIONYSOS","Indianer Lettuce Head","Moar Hof","White Putto","Cala Luna  Lettuce Head "],
"portalTypeNum": [1,1,1,1,1,1],
"portalObjectiveNum": [1,1,1,1,1,1],
"id": 14
},
"geometry": {
"type": "LineString",
"coordinates": [
[
11.672713,48.221467
]
,[
11.667439,48.221889
]
,[
11.668854,48.222583
]
,[
11.672242,48.222949
]
,[
11.672987,48.222373
]
,[
11.673521,48.222597
]
]
}
},

{"type": "Feature",
"properties":{
"time": 1473311666072,
"guid": "4e7e99d0c6124b1daf7be7dbc347ff89.1c",
"title": "Sound & Vision 19/54",
"description": "Your journey will take you through three beautiful towns of Bavaria. Please enjoy the views and our historical towns.",
"author":"Quozzy",
"authorTeam": "R",
"ratingE6": 937500,
"medianCompletionTimeMs": 382686,
"numUniqueCompletedPlayers": 16,
"typeNumMission": 1,
"image": "https://lh3.googleusercontent.com/HPmd2uD7i8fAqtfRCIn5w2zxCek2h3U-chTLe1o4YyGvuiIawoc1Gze_K82LS-pATCVwoHKx6pcE17A1fEE",
"portalTitle": ["Altes Kruzifix","Heidi Soller Lettuce Head ","Little Tower","Mayor Memorial","The School of Music","Father and Child"],
"portalTypeNum": [1,1,1,1,1,1],
"portalObjectiveNum": [1,1,1,1,1,2],
"id": 14
},
"geometry": {
"type": "LineString",
"coordinates": [
[
11.673993,48.222591
]
,[
11.67381,48.222156
]
,[
11.676465,48.222393
]
,[
11.676782,48.22245
]
,[
11.676697,48.222106
]
,[
11.67784,48.222456
]
]
}
},

{"type": "Feature",
"properties":{
"time": 1473311670714,
"guid": "899168314ee74c36b68096dd6084abc0.1c",
"title": "Sound & Vision 20/54",
"description": "Your journey will take you through three beautiful towns of Bavaria. Please enjoy the views and our historical towns.",
"author":"Quozzy",
"authorTeam": "R",
"ratingE6": 866667,
"medianCompletionTimeMs": 862132,
"numUniqueCompletedPlayers": 15,
"typeNumMission": 1,
"image": "https://lh3.googleusercontent.com/1WGPYR3EVtClnwaniVnJF4V6dNBQop17KrHg5T05vlEDSKiNe6abPbvpbR2GzaKXyM2m9i8wa3rErSuju0ZY",
"portalTitle": ["Spielplatz Grünzug 1","Seebach Fish Pass","In Memory Y2K","Kraut Garden Ismaning","Jesus Ismaning ","Seidl-Kreuz"],
"portalTypeNum": [1,1,1,1,1,1],
"portalObjectiveNum": [1,1,1,1,1,1],
"id": 14
},
"geometry": {
"type": "LineString",
"coordinates": [
[
11.678725,48.222131
]
,[
11.678369,48.221486
]
,[
11.677392,48.220169
]
,[
11.683575,48.2193
]
,[
11.685331,48.219066
]
,[
11.687033,48.222959
]
]
}
},

{"type": "Feature",
"properties":{
"time": 1473311678974,
"guid": "235df3ba52ca429897b146b28883ca34.1c",
"title": "Sound & Vision 21/54",
"description": "Your journey will take you through three beautiful towns of Bavaria. Please enjoy the views and our historical towns.",
"author":"Quozzy",
"authorTeam": "R",
"ratingE6": 800000,
"medianCompletionTimeMs": 562518,
"numUniqueCompletedPlayers": 15,
"typeNumMission": 1,
"image": "https://lh3.googleusercontent.com/YTHiuZyt7aa73Lkq7Tti6m1clsLNx3EermP2BKNrnNtwLQsA8YZGSZW7Ics59_LGdFeUjp8-roVNPENqs7SY",
"portalTitle": ["Dark Green and Yellow Lettuce Head","Two Face Lettuce Head","Frau mit Krug","Sanctos Laudo, 1948","Kreuz Seniorenwohnanlage","Ismaning Train Station"],
"portalTypeNum": [1,1,1,1,1,1],
"portalObjectiveNum": [1,1,1,1,1,2],
"id": 14
},
"geometry": {
"type": "LineString",
"coordinates": [
[
11.681212,48.221979
]
,[
11.681732,48.225601
]
,[
11.680331,48.226472
]
,[
11.678956,48.227223
]
,[
11.678963,48.226731
]
,[
11.679423,48.226112
]
]
}
},

{"type": "Feature",
"properties":{
"time": 1473311697093,
"guid": "4a4849bc21d64a7f9bf30b143573fc95.1c",
"title": "Sound & Vision 22/54",
"description": "Your journey will take you through three beautiful towns of Bavaria. Please enjoy the views and our historical towns.",
"author":"Quozzy",
"authorTeam": "R",
"ratingE6": 875000,
"medianCompletionTimeMs": 267350,
"numUniqueCompletedPlayers": 15,
"typeNumMission": 1,
"image": "https://lh3.googleusercontent.com/1egZc7WlLEyhAtl9CkwkjeiAnuT6l-u5tJAUQUggHrx78pBA6xyUNnyLvTFNx2pLPEwmEaBMaLOoc-XuCpqW",
"portalTitle": ["Gemeinsam für Ismaning","Some Green Lettuce Head","Schweiger Soller","Water Feature","Money Trap","Alles Was Man Braucht Gibt Es Bei Benz"],
"portalTypeNum": [1,1,1,1,1,1],
"portalObjectiveNum": [1,1,1,1,1,1],
"id": 14
},
"geometry": {
"type": "LineString",
"coordinates": [
[
11.679151,48.225244
]
,[
11.678512,48.224951
]
,[
11.678369,48.224371
]
,[
11.677864,48.22467
]
,[
11.677399,48.22457
]
,[
11.676751,48.225097
]
]
}
},

{"type": "Feature",
"properties":{
"time": 1473311700686,
"guid": "1241fb0bab914178bee5610e992ae8af.1c",
"title": "Sound & Vision 23/54",
"description": "Your journey will take you through three beautiful towns of Bavaria. Please enjoy the views and our historical towns.",
"author":"Quozzy",
"authorTeam": "R",
"ratingE6": 866667,
"medianCompletionTimeMs": 325364,
"numUniqueCompletedPlayers": 15,
"typeNumMission": 1,
"image": "https://lh3.googleusercontent.com/s6i8zCUylUYVTm7FawqbaCUwvClws6V1uCWDN9fGSSOKc_ZKRWcOHw_HQx1coVXtV893mdyb-3fCvz5W-l-m",
"portalTitle": ["Kistler-Hof","Peace Man","Gold Marie Lettuce Head","Blumen Outlet in Ismaning","Little House on Dorfstreet","Rick's Lettuce Head"],
"portalTypeNum": [1,1,1,1,1,1],
"portalObjectiveNum": [1,1,1,1,1,2],
"id": 14
},
"geometry": {
"type": "LineString",
"coordinates": [
[
11.675364,48.224333
]
,[
11.674613,48.224004
]
,[
11.674819,48.224625
]
,[
11.675056,48.224793
]
,[
11.67412,48.224638
]
,[
11.673153,48.22484
]
]
}
},

{"type": "Feature",
"properties":{
"time": 1473311724925,
"guid": "2793e606926444c08a378668db88a9e9.1c",
"title": "Sound & Vision 24/54",
"description": "Your journey will take you through three beautiful towns of Bavaria. Please enjoy the views and our historical towns.",
"author":"Quozzy",
"authorTeam": "R",
"ratingE6": 812500,
"medianCompletionTimeMs": 515621,
"numUniqueCompletedPlayers": 16,
"typeNumMission": 1,
"image": "https://lh3.googleusercontent.com/3wlhd4i3LoUVvjcUDJOlk6i-O6ipCfBrUjnpQ91SaPkku2EqG-IxrrMhHHAnH1FUhwBmbbN9PBlFSu2AwbI",
"portalTitle": ["St. Pauli Lettuce Head","Kraus Lettuce Head","Vitamin C Sculpture","Aschwin Floristik","Soller Gärtner","Indianer Lettuce Head"],
"portalTypeNum": [1,1,1,1,1,1],
"portalObjectiveNum": [1,1,1,1,1,1],
"id": 14
},
"geometry": {
"type": "LineString",
"coordinates": [
[
11.672179,48.224756
]
,[
11.671728,48.22488
]
,[
11.671113,48.225107
]
,[
11.670628,48.224823
]
,[
11.669221,48.22452
]
,[
11.668854,48.222583
]
]
}
},

{"type": "Feature",
"properties":{
"time": 1473311730487,
"guid": "fe58e0dcb67148a88fe42e9db1840287.1c",
"title": "Sound & Vision 25/54",
"description": "Your journey will take you through three beautiful towns of Bavaria. Please enjoy the views and our historical towns.",
"author":"Quozzy",
"authorTeam": "R",
"ratingE6": 800000,
"medianCompletionTimeMs": 423576,
"numUniqueCompletedPlayers": 15,
"typeNumMission": 1,
"image": "https://lh3.googleusercontent.com/b4_KGeEcUBVJjCZauwnW_dBPujLFrRlFMhBu72OvQI65ZjZxIXKHcFA8L-QpxhU4oxIst76vP7_ScSLGLCs",
"portalTitle": ["Wagnermeister Essigkrug,  1911","Aphrodite","Nischenfigur Schloßpark","Twisted Wooden Structure ","Stone Sign","Schloßpark (South Entrance)"],
"portalTypeNum": [1,1,1,1,1,1],
"portalObjectiveNum": [1,1,1,1,1,2],
"id": 14
},
"geometry": {
"type": "LineString",
"coordinates": [
[
11.670382,48.225232
]
,[
11.671312,48.225843
]
,[
11.672104,48.225781
]
,[
11.671621,48.226496
]
,[
11.671385,48.226778
]
,[
11.6717,48.226806
]
]
}
},

{"type": "Feature",
"properties":{
"time": 1473311762241,
"guid": "9c0255e80ab143319b565097b86112fb.1c",
"title": "Sound & Vision 26/54",
"description": "Your journey will take you through three beautiful towns of Bavaria. Please enjoy the views and our historical towns.",
"author":"Quozzy",
"authorTeam": "R",
"ratingE6": 875000,
"medianCompletionTimeMs": 277114,
"numUniqueCompletedPlayers": 16,
"typeNumMission": 1,
"image": "https://lh3.googleusercontent.com/YP8HNdQlXsY6ATPSBd8dWRzJ1L6EsV_W9opu6ti4clut1g-p3t5fM6GO4lJloy7My8HG5lvw7DXve9ckKuU",
"portalTitle": ["Schloßpavillon ","Der Schloßpark Ismaning","Sun Dial at Schlossmuseum","Sibil 1962","Labyrinth Im Schloss ","Christian Hinz 'bridge ismanin"],
"portalTypeNum": [1,1,1,1,1,1],
"portalObjectiveNum": [1,1,1,1,1,1],
"id": 14
},
"geometry": {
"type": "LineString",
"coordinates": [
[
11.672659,48.227312
]
,[
11.67301,48.22761
]
,[
11.67292,48.228427
]
,[
11.672392,48.228436
]
,[
11.672293,48.228266
]
,[
11.671899,48.22838
]
]
}
},

{"type": "Feature",
"properties":{
"time": 1473311765907,
"guid": "ab2ecdbdcb4b4014885047ca56aebf08.1c",
"title": "Sound & Vision 27/54",
"description": "Your journey will take you through three beautiful towns of Bavaria. Please enjoy the views and our historical towns.",
"author":"Quozzy",
"authorTeam": "R",
"ratingE6": 866667,
"medianCompletionTimeMs": 417876,
"numUniqueCompletedPlayers": 15,
"typeNumMission": 1,
"image": "https://lh3.googleusercontent.com/VjmkRu9hUn8ZxSHepoHSjfcnAQG6pEcqgD4sKOPUJlaSfQXDAdDK8IXIW2Hv79rje7TTnFR0pwqHkWL_APgh",
"portalTitle": ["Gallerie Schlossmuseum","Neuwirt, 1908","Dark Blue Lettuce Head","Kraft-Hof","Asiatischer Brunnen","Green Lettuce Head"],
"portalTypeNum": [1,1,1,1,1,1],
"portalObjectiveNum": [1,1,1,1,1,2],
"id": 14
},
"geometry": {
"type": "LineString",
"coordinates": [
[
11.671475,48.228629
]
,[
11.672198,48.229104
]
,[
11.672853,48.229371
]
,[
11.672119,48.230334
]
,[
11.674092,48.229889
]
,[
11.673739,48.229445
]
]
}
},

{"type": "Feature",
"properties":{
"time": 1473311803800,
"guid": "67efac3c9a464f999f652e8f32b839ce.1c",
"title": "Sound & Vision 28/54",
"description": "Your journey will take you through three beautiful towns of Bavaria. Please enjoy the views and our historical towns.",
"author":"Quozzy",
"authorTeam": "R",
"ratingE6": 733333,
"medianCompletionTimeMs": 339263,
"numUniqueCompletedPlayers": 15,
"typeNumMission": 1,
"image": "https://lh3.googleusercontent.com/hz61K9b3pKeTRvU2ByyKR2IbiuYHQdkhYxAFE6eWwOr2LdRdd_nmXmpJOmkUQ4RodCsPCz674gvwz7MLGDTm",
"portalTitle": ["Steinkopf","Kaktus","Der Schlosshof","Kinderspielplatz Im Hain","Der Schlosspark","Rathaus Ismaning"],
"portalTypeNum": [1,1,1,1,1,1],
"portalObjectiveNum": [1,1,2,1,1,2],
"id": 14
},
"geometry": {
"type": "LineString",
"coordinates": [
[
11.674412,48.229516
]
,[
11.674258,48.229268
]
,[
11.674446,48.228958
]
,[
11.675061,48.228251
]
,[
11.673451,48.228068
]
,[
11.674067,48.228004
]
]
}
},

{"type": "Feature",
"properties":{
"time": 1473311809997,
"guid": "a4ab709005f8499a9b273dd0bcefd3f8.1c",
"title": "Sound & Vision 29/54",
"description": "Your journey will take you through three beautiful towns of Bavaria. Please enjoy the views and our historical towns.",
"author":"Quozzy",
"authorTeam": "R",
"ratingE6": 866667,
"medianCompletionTimeMs": 176018,
"numUniqueCompletedPlayers": 15,
"typeNumMission": 1,
"image": "https://lh3.googleusercontent.com/ivUSVg57phiWPyO42HHu7qYValNBtfomYvbyYAmNdo01kaHI28ScOITKAN7kJRI4zUqy_hhpOOUW5qjELHxj",
"portalTitle": ["Schloss Brunnen","WWI Memorial","Schloßökonomiegebäude","Marienstatue","Zur Mühle","Old Water Mill"],
"portalTypeNum": [1,1,1,1,1,1],
"portalObjectiveNum": [1,1,1,1,1,2],
"id": 14
},
"geometry": {
"type": "LineString",
"coordinates": [
[
11.674357,48.227949
]
,[
11.674431,48.227376
]
,[
11.674858,48.227251
]
,[
11.674188,48.227086
]
,[
11.674563,48.226922
]
,[
11.674451,48.226729
]
]
}
},

{"type": "Feature",
"properties":{
"time": 1473311834522,
"guid": "c64f67aa9458439a8ebd9e6529ac58fe.1c",
"title": "Sound & Vision 30/54",
"description": "Your journey will take you through three beautiful towns of Bavaria. Please enjoy the views and our historical towns.",
"author":"Quozzy",
"authorTeam": "R",
"ratingE6": 733333,
"medianCompletionTimeMs": 187277,
"numUniqueCompletedPlayers": 15,
"typeNumMission": 1,
"image": "https://lh3.googleusercontent.com/Vkl7CzXIEWzE_-8FxrUBbZged5jA7-oI10PN2bJ3hRbwDNhsHHeDIprw4y2Dyl9bTP3I4PYTgJjh7oI2Da4QCw",
"portalTitle": ["Expeditor-Hof, 1949","Bavaria Blue Lettuce Head","Schreibwaren Geschenke","Flowery Lettuce Head","Schmied Kranz, 1920","Little House on Dorfstreet"],
"portalTypeNum": [1,1,1,1,1,1],
"portalObjectiveNum": [2,2,1,1,1,1],
"id": 14
},
"geometry": {
"type": "LineString",
"coordinates": [
[
11.673647,48.226032
]
,[
11.674016,48.225997
]
,[
11.673878,48.225485
]
,[
11.674031,48.225243
]
,[
11.673845,48.225041
]
,[
11.67412,48.224638
]
]
}
},

{"type": "Feature",
"properties":{
"time": 1473311864546,
"guid": "59c9b44762ec49de88b84719f2198905.1c",
"title": "Sound & Vision 31/54",
"description": "Your journey will take you through three beautiful towns of Bavaria. Please enjoy the views and our historical towns.",
"author":"Quozzy",
"authorTeam": "R",
"ratingE6": 857143,
"medianCompletionTimeMs": 324006,
"numUniqueCompletedPlayers": 15,
"typeNumMission": 1,
"image": "https://lh3.googleusercontent.com/d-O8I3azyWj_MuqCwZ1w9-xjbpaCrWsocAcYXogVPywK1-XIHt6HnpiVhzL6kFuDv_mntiGo-dwQkjpppDY",
"portalTitle": ["Gold Marie Lettuce Head","Blumen Outlet in Ismaning","Kistler-Hof","Metzger Beck, 1955","Green Golden Lettuce Head","Barneskole Salat Hode"],
"portalTypeNum": [1,1,1,1,1,1],
"portalObjectiveNum": [1,1,2,1,1,2],
"id": 14
},
"geometry": {
"type": "LineString",
"coordinates": [
[
11.674819,48.224625
]
,[
11.675056,48.224793
]
,[
11.675364,48.224333
]
,[
11.675503,48.225277
]
,[
11.675175,48.225742
]
,[
11.675823,48.225857
]
]
}
},

{"type": "Feature",
"properties":{
"time": 1473311871742,
"guid": "6636d68113c148cb938291c3cfc4f790.1c",
"title": "Sound & Vision 32/54",
"description": "Your journey will take you through three beautiful towns of Bavaria. Please enjoy the views and our historical towns.",
"author":"Quozzy",
"authorTeam": "R",
"ratingE6": 937500,
"medianCompletionTimeMs": 226194,
"numUniqueCompletedPlayers": 16,
"typeNumMission": 1,
"image": "https://lh3.googleusercontent.com/FBZg1M0FDFznCP_CtT8OwZkmuHT1UTL5zJ5ehZt_SxwPqMOI7mTGOdOeVz4j8xlkmKLadmYK0RcrJPyYFcrAtA",
"portalTitle": ["Back Pack","In Treue Fest","St Johann Baptist Church","The Mill Lettuce Head","Open Air Chapel","Casone am Kirchplatz"],
"portalTypeNum": [1,1,1,1,1,1],
"portalObjectiveNum": [1,1,1,1,1,2],
"id": 14
},
"geometry": {
"type": "LineString",
"coordinates": [
[
11.675004,48.226189
]
,[
11.675348,48.226425
]
,[
11.67545,48.226596
]
,[
11.675015,48.226701
]
,[
11.675942,48.226676
]
,[
11.675336,48.227499
]
]
}
},

{"type": "Feature",
"properties":{
"time": 1473311884262,
"guid": "8d55a7bf792c42a4a40de0074869e24f.1c",
"title": "Sound & Vision 33/54",
"description": "Your journey will take you through three beautiful towns of Bavaria. Please enjoy the views and our historical towns.",
"author":"Quozzy",
"authorTeam": "R",
"ratingE6": 866667,
"medianCompletionTimeMs": 257563,
"numUniqueCompletedPlayers": 15,
"typeNumMission": 1,
"image": "https://lh3.googleusercontent.com/MpjZ-70WTl1J2ipJ_azTM1TJfc64Uhlk5udJpEjFlAygpXMGxZ0I_o4R7IXQj7PBb4L-I1gPZtiPhBi4Pnk",
"portalTitle": ["Sobek fountain","Maibaum Ismaning ","Lounge T1 Restaurant","Doktorhaus 1877","Eler Hof 1928","Stone Lettuce Garden"],
"portalTypeNum": [1,1,1,1,1,1],
"portalObjectiveNum": [1,1,2,1,1,2],
"id": 14
},
"geometry": {
"type": "LineString",
"coordinates": [
[
11.675533,48.227031
]
,[
11.675832,48.227003
]
,[
11.676389,48.227423
]
,[
11.676742,48.227294
]
,[
11.676728,48.226763
]
,[
11.67646,48.226023
]
]
}
},

{"type": "Feature",
"properties":{
"time": 1473311894314,
"guid": "d60642be41dd4841a2ba91da332fecf6.1c",
"title": "Sound & Vision 34/54",
"description": "Your journey will take you through three beautiful towns of Bavaria. Please enjoy the views and our historical towns.",
"author":"Quozzy",
"authorTeam": "R",
"ratingE6": 846154,
"medianCompletionTimeMs": 196007,
"numUniqueCompletedPlayers": 15,
"typeNumMission": 1,
"image": "https://lh3.googleusercontent.com/xBpCu4V4f5BQlUn3cXEK8DfrrApHhUfuxA2EkmoMM0LLa9kw-wGe8bqzHHhKfq9kF0CzJp1nuCM0XjjbrnOk",
"portalTitle": ["Zur Post","Alles Was Man Braucht Gibt Es Bei Benz","Money Trap","Water Feature","Schweiger Soller","Some Green Lettuce Head"],
"portalTypeNum": [1,1,1,1,1,1],
"portalObjectiveNum": [1,1,1,1,1,2],
"id": 14
},
"geometry": {
"type": "LineString",
"coordinates": [
[
11.676896,48.225721
]
,[
11.676751,48.225097
]
,[
11.677399,48.22457
]
,[
11.677864,48.22467
]
,[
11.678369,48.224371
]
,[
11.678512,48.224951
]
]
}
},

{"type": "Feature",
"properties":{
"time": 1473311905594,
"guid": "28de4910b8974cf8bba3786511c6a61c.1c",
"title": "Sound & Vision 35/54",
"description": "Your journey will take you through three beautiful towns of Bavaria. Please enjoy the views and our historical towns.",
"author":"Quozzy",
"authorTeam": "R",
"ratingE6": 866667,
"medianCompletionTimeMs": 252526,
"numUniqueCompletedPlayers": 15,
"typeNumMission": 1,
"image": "https://lh3.googleusercontent.com/oBTmV5bX_5Jxmj5rKfQ5UihTBvb-QqTq0lbI-tfUN8u8peClxXh8I7pn_uMxQYjww89p0mK0fDtXDuf6Ki1x",
"portalTitle": ["Gemeinsam für Ismaning","Ismaning Train Station","Frau mit Krug","Kreuz Seniorenwohnanlage","Sanctos Laudo, 1948","Embracement"],
"portalTypeNum": [1,1,1,1,1,1],
"portalObjectiveNum": [1,1,1,1,1,2],
"id": 14
},
"geometry": {
"type": "LineString",
"coordinates": [
[
11.679151,48.225244
]
,[
11.679423,48.226112
]
,[
11.680331,48.226472
]
,[
11.678963,48.226731
]
,[
11.678956,48.227223
]
,[
11.677282,48.227188
]
]
}
},

{"type": "Feature",
"properties":{
"time": 1473311911633,
"guid": "d0b0880ade3c470db3508ab9ee8ac6d1.1c",
"title": "Sound & Vision 36/54",
"description": "Your journey will take you through three beautiful towns of Bavaria. Please enjoy the views and our historical towns.",
"author":"Quozzy",
"authorTeam": "R",
"ratingE6": 923077,
"medianCompletionTimeMs": 497214,
"numUniqueCompletedPlayers": 13,
"typeNumMission": 1,
"image": "https://lh3.googleusercontent.com/gCIlI-KHoHQ_tgOSopq_cmLfdvFY7LbnFsb8RUZyzPwsB4KF9OhMjsu70fjrraJfcW373Nv_5Gv3yQMYaNVw",
"portalTitle": ["Krautkopf Colorfull","Hallenbad Ismaning","RSI Fountain","Krautkopf Dance","The Birds, Ismaning","Osterfeldhalle"],
"portalTypeNum": [1,1,1,1,1,1],
"portalObjectiveNum": [1,1,1,1,1,1],
"id": 14
},
"geometry": {
"type": "LineString",
"coordinates": [
[
11.678911,48.227861
]
,[
11.676939,48.228372
]
,[
11.678,48.228326
]
,[
11.676559,48.229915
]
,[
11.678037,48.229862
]
,[
11.678994,48.230641
]
]
}
},

{"type": "Feature",
"properties":{
"time": 1473311981748,
"guid": "50b1ba0ceb234d5cbfff8d99f2b26da6.1c",
"title": "Sound & Vision 37/54",
"description": "Your journey will take you through three beautiful towns of Bavaria. Please enjoy the views and our historical towns.",
"author":"Quozzy",
"authorTeam": "R",
"ratingE6": 785714,
"medianCompletionTimeMs": 539057,
"numUniqueCompletedPlayers": 14,
"typeNumMission": 1,
"image": "https://lh3.googleusercontent.com/eZT3H0lmXdUnzbXPwbHKW_CbVbit7XP2Gco_L3BKxsioL_EHH2EJgJdHE6qyvtYac3IMPbN162qNRctYNqU",
"portalTitle": ["Fishy Lettuce Head","Zorg Ismaning","Science Lettuce Head","Jesus im Kreisverkehr","Hogs Farm Lettuce Head","DGSfP"],
"portalTypeNum": [1,1,1,1,1,1],
"portalObjectiveNum": [1,1,1,1,1,2],
"id": 14
},
"geometry": {
"type": "LineString",
"coordinates": [
[
11.686898,48.232405
]
,[
11.684494,48.232527
]
,[
11.683778,48.230445
]
,[
11.683998,48.230106
]
,[
11.681676,48.230239
]
,[
11.680489,48.229047
]
]
}
},

{"type": "Feature",
"properties":{
"time": 1473311992433,
"guid": "d6792f59a5e744eab7b731326329cd40.1c",
"title": "Sound & Vision 38/54",
"description": "Your journey will take you through three beautiful towns of Bavaria. Please enjoy the views and our historical towns.",
"author":"Quozzy",
"authorTeam": "R",
"ratingE6": 928571,
"medianCompletionTimeMs": 301793,
"numUniqueCompletedPlayers": 14,
"typeNumMission": 1,
"image": "https://lh3.googleusercontent.com/MNARhgQ1HadNABJ5ao03w-XEGnQsLjlEBlJgtTvD0Mi583qoQ6eT4jrDGJzyl754AsSv9qye-OwL_TSAtXkK",
"portalTitle": ["Feuerwehr Ismaning","Bürgerschaft Ismaning 1979","Fire Fighter Ismaning","Osterfeldhalle","Vogel Bus ","The Birds, Ismaning"],
"portalTypeNum": [1,1,1,1,1,1],
"portalObjectiveNum": [1,1,1,1,2,2],
"id": 14
},
"geometry": {
"type": "LineString",
"coordinates": [
[
11.679217,48.230129
]
,[
11.6789,48.230098
]
,[
11.678728,48.230249
]
,[
11.678994,48.230641
]
,[
11.679753,48.232244
]
,[
11.678037,48.229862
]
]
}
},

{"type": "Feature",
"properties":{
"time": 1473311998225,
"guid": "63be09f124c64847951181f9bd6a4db1.1c",
"title": "Sound & Vision 39/54",
"description": "Your journey will take you through three beautiful towns of Bavaria. Please enjoy the views and our historical towns.",
"author":"Quozzy",
"authorTeam": "R",
"ratingE6": 857143,
"medianCompletionTimeMs": 282888,
"numUniqueCompletedPlayers": 14,
"typeNumMission": 1,
"image": "https://lh3.googleusercontent.com/NA73DXYXzyAwElY_bwQYbMTcQi1uaEAXHVu444Kf044aKzS--rHPtug9H9-QdAR9L1_WuEBWGsHiVXxYrsSv",
"portalTitle": ["The Birds, Ismaning","Krautkopf Dance","Hainhalle","Gitta Lettuce Head","Riesenkartoffel","Childrens Fort"],
"portalTypeNum": [1,1,1,1,1,1],
"portalObjectiveNum": [1,1,1,1,1,1],
"id": 14
},
"geometry": {
"type": "LineString",
"coordinates": [
[
11.678037,48.229862
]
,[
11.676559,48.229915
]
,[
11.675818,48.229589
]
,[
11.67653,48.23092
]
,[
11.676184,48.231031
]
,[
11.675142,48.231333
]
]
}
},

{"type": "Feature",
"properties":{
"time": 1473312002056,
"guid": "a0f274f8b9b949f19fa81b2fe0922751.1c",
"title": "Sound & Vision 40/54",
"description": "Your journey will take you through three beautiful towns of Bavaria. Please enjoy the views and our historical towns.",
"author":"Quozzy",
"authorTeam": "R",
"ratingE6": 857143,
"medianCompletionTimeMs": 618811,
"numUniqueCompletedPlayers": 14,
"typeNumMission": 1,
"image": "https://lh3.googleusercontent.com/SxIUhhP3FYd_zXaIFtC1_ZW33ViaVCrli-0mu1aVEmhLkGz7Qk14VWGsvlNhjDzq-Tul5dw7Xodnm1VcfAFK",
"portalTitle": ["Digital Lettuce Head","Walter Festl Statue","Green Marble Ball","Friedhofskreuz","Neuer Friedhof Ismaning","Hallmanns Bistro"],
"portalTypeNum": [1,1,1,1,1,1],
"portalObjectiveNum": [1,1,1,1,1,2],
"id": 14
},
"geometry": {
"type": "LineString",
"coordinates": [
[
11.67708,48.232124
]
,[
11.674231,48.233656
]
,[
11.674375,48.233908
]
,[
11.673827,48.234463
]
,[
11.674078,48.234862
]
,[
11.679709,48.236102
]
]
}
},

{"type": "Feature",
"properties":{
"time": 1473312018536,
"guid": "36b38ffc23824d0c961b133948a4ffab.1c",
"title": "Sound & Vision 41/54",
"description": "Your journey will take you through three beautiful towns of Bavaria. Please enjoy the views and our historical towns.",
"author":"Quozzy",
"authorTeam": "R",
"ratingE6": 714286,
"medianCompletionTimeMs": 2698572,
"numUniqueCompletedPlayers": 14,
"typeNumMission": 1,
"image": "https://lh3.googleusercontent.com/G_9H7mHzZAaIpA3KZg2zmJn-okX8ZrY0cTqtfCvV8acQGpmNngVeO5IAIV9R9ycDODOLeFWvm4KMfX7cUTVR2g",
"portalTitle": ["Hallmanns Bistro","Kruzifix, Am Lenzenfleck ","Bürogebäude FOKUS","Little Angelo","Zombie Siege","Brunnen an der Sportarena Ismaning"],
"portalTypeNum": [1,1,1,1,1,1],
"portalObjectiveNum": [1,1,2,2,2,1],
"id": 14
},
"geometry": {
"type": "LineString",
"coordinates": [
[
11.679709,48.236102
]
,[
11.679765,48.238987
]
,[
11.682269,48.239349
]
,[
11.684413,48.238884
]
,[
11.685016,48.238748
]
,[
11.68616,48.241733
]
]
}
},

{"type": "Feature",
"properties":{
"time": 1473312049885,
"guid": "da4eaeb9daa54768a1732ebb4bbf17af.1c",
"title": "Sound & Vision 42/54",
"description": "Your journey will take you through three beautiful towns of Bavaria. Please enjoy the views and our historical towns.",
"author":"Quozzy",
"authorTeam": "R",
"ratingE6": 846154,
"medianCompletionTimeMs": 2117057,
"numUniqueCompletedPlayers": 14,
"typeNumMission": 1,
"image": "https://lh3.googleusercontent.com/daeEGZRqPTts8m7nCqwZdIyHkUkQoRKkZVRLlLj6u7Mp1DBcUUNKnT-wZ1mJsnFllWN7MYz6n-4-pmY2u7FR",
"portalTitle": ["BSB Speicher","Y Sculpture at Bsb","TUM Tower","Binary Trees' at the Leibniz Supercomputing Centre","Doppeltes Schiff","TUM Mathematik und Informatik"],
"portalTypeNum": [1,1,1,1,1,1],
"portalObjectiveNum": [1,1,1,1,1,1],
"id": 14
},
"geometry": {
"type": "LineString",
"coordinates": [
[
11.66219,48.260074
]
,[
11.662201,48.260361
]
,[
11.664205,48.261324
]
,[
11.669184,48.261321
]
,[
11.668198,48.261703
]
,[
11.669426,48.262443
]
]
}
},

{"type": "Feature",
"properties":{
"time": 1473312057569,
"guid": "a58f2c4ff7ea46adb6445e86ae0413d9.1c",
"title": "Sound & Vision 43/54",
"description": "Your journey will take you through three beautiful towns of Bavaria. Please enjoy the views and our historical towns.",
"author":"Quozzy",
"authorTeam": "R",
"ratingE6": 764706,
"medianCompletionTimeMs": 481320,
"numUniqueCompletedPlayers": 17,
"typeNumMission": 1,
"image": "https://lh3.googleusercontent.com/O5CD-QfItUipNdh9C2BljlEDlEQBGRMldffwczDq1yBtmhxaY00o_KoDf6K1QCVASw_V_R-Gl1qwjmMt4VRe",
"portalTitle": ["The Slide","Bibliothek","Linear Sphere","Walther Von Dyck Statue","Robert Sauer Statue","Skulptur an der FMI Fakultät"],
"portalTypeNum": [1,1,1,1,1,1],
"portalObjectiveNum": [1,1,1,1,1,1],
"id": 14
},
"geometry": {
"type": "LineString",
"coordinates": [
[
11.668285,48.262503
]
,[
11.668198,48.262269
]
,[
11.667533,48.262612
]
,[
11.667045,48.262408
]
,[
11.667316,48.262899
]
,[
11.666311,48.262576
]
]
}
},

{"type": "Feature",
"properties":{
"time": 1473312063101,
"guid": "9d757c7cb2964eeb8b208065576c46ee.1c",
"title": "Sound & Vision 44/54",
"description": "Your journey will take you through three beautiful towns of Bavaria. Please enjoy the views and our historical towns.",
"author":"Quozzy",
"authorTeam": "R",
"ratingE6": 785714,
"medianCompletionTimeMs": 321708,
"numUniqueCompletedPlayers": 14,
"typeNumMission": 1,
"image": "https://lh3.googleusercontent.com/Gb0hD80rnV2Drb9_mTZkC5dOZhAgnoCjiSDLbDfIwn5vaSCvP0neuNfXox345OEYBDBiiHyKUyVvdKjOE2g1Mw",
"portalTitle": ["Supermuc","Metal Grid Stone","Stone Chairs","Wasserfontäne am StuCafe","Muskelmenschen","Alphajet"],
"portalTypeNum": [1,1,1,1,1,1],
"portalObjectiveNum": [1,1,1,1,1,1],
"id": 14
},
"geometry": {
"type": "LineString",
"coordinates": [
[
11.666585,48.261824
]
,[
11.666373,48.264267
]
,[
11.667128,48.264744
]
,[
11.667249,48.265821
]
,[
11.667878,48.265614
]
,[
11.668151,48.265758
]
]
}
},

{"type": "Feature",
"properties":{
"time": 1473312065856,
"guid": "11b28c9bd26c417ead16c85db680c935.1c",
"title": "Sound & Vision 45/54",
"description": "Your journey will take you through three beautiful towns of Bavaria. Please enjoy the views and our historical towns.",
"author":"Quozzy",
"authorTeam": "R",
"ratingE6": 785714,
"medianCompletionTimeMs": 524871,
"numUniqueCompletedPlayers": 14,
"typeNumMission": 1,
"image": "https://lh3.googleusercontent.com/IHA-68W5ujhOS_4R03dwkvFQQtJM9-64f3m0lf6NJHpmes8srlZ1GssJmAN_pXrhxsdUXWk2uqw0DgxGdsfkBg",
"portalTitle": ["TUM Fakultät Chemie","Head Sculpture","Löwenskulptur","Head Sculpture with Nude Women ","Headsculpture 'The Invisible Man'","Orange Säulen"],
"portalTypeNum": [1,1,1,1,1,1],
"portalObjectiveNum": [1,1,1,1,1,1],
"id": 14
},
"geometry": {
"type": "LineString",
"coordinates": [
[
11.668723,48.267963
]
,[
11.668368,48.268136
]
,[
11.668918,48.268197
]
,[
11.668783,48.268445
]
,[
11.668693,48.268949
]
,[
11.672919,48.268878
]
]
}
},

{"type": "Feature",
"properties":{
"time": 1473312071569,
"guid": "7b73a1228cbf42cdb79471d96e5b8779.1c",
"title": "Sound & Vision 46/54",
"description": "Your journey will take you through three beautiful towns of Bavaria. Please enjoy the views and our historical towns.",
"author":"Quozzy",
"authorTeam": "R",
"ratingE6": 733333,
"medianCompletionTimeMs": 492143,
"numUniqueCompletedPlayers": 15,
"typeNumMission": 1,
"image": "https://lh3.googleusercontent.com/KJqR8MX6nKeVYrpjbIXdpOZ7Cy4hGghOYoLEJfyG_CLjlsAvzcAllN6J_lS-w1PkwfgQ3-kaRuQ-vH_Y-AChOQ",
"portalTitle": ["Head Sculpture with Ladder","Kopf Skulptur","Campus Cneipe","Another head sculpture by Hors","Another head sculpture by Hors","IAS"],
"portalTypeNum": [1,1,1,1,1,1],
"portalObjectiveNum": [1,1,1,1,1,1],
"id": 14
},
"geometry": {
"type": "LineString",
"coordinates": [
[
11.671987,48.26813
]
,[
11.671147,48.26802
]
,[
11.670263,48.267663
]
,[
11.670619,48.267162
]
,[
11.671193,48.266998
]
,[
11.671795,48.266804
]
]
}
},

{"type": "Feature",
"properties":{
"time": 1473312077125,
"guid": "403672fe2f274f11bb3f17aa85d975eb.1c",
"title": "Sound & Vision 47/54",
"description": "Your journey will take you through three beautiful towns of Bavaria. Please enjoy the views and our historical towns.",
"author":"Quozzy",
"authorTeam": "R",
"ratingE6": 785714,
"medianCompletionTimeMs": 255396,
"numUniqueCompletedPlayers": 14,
"typeNumMission": 1,
"image": "https://lh3.googleusercontent.com/bEG5nOW82LangZvcpmWKS2d1zqy5z5CYbZMG33SCCwyO3k1NxISQ5b4zeRIIb2CjRNDlURGkQ2JJj_WBtm4",
"portalTitle": ["IAS","Atom-Ei","Granite Monuments","Head Sculpture by Horst","Physik Fakultät (LMU)","Orange Säulen"],
"portalTypeNum": [1,1,1,1,1,1],
"portalObjectiveNum": [1,1,1,1,1,1],
"id": 14
},
"geometry": {
"type": "LineString",
"coordinates": [
[
11.671795,48.266804
]
,[
11.672513,48.266566
]
,[
11.672906,48.267391
]
,[
11.672687,48.267869
]
,[
11.673617,48.26851
]
,[
11.672919,48.268878
]
]
}
},

{"type": "Feature",
"properties":{
"time": 1473312085877,
"guid": "50001507c7eb4367be1f2260e777fe02.1c",
"title": "Sound & Vision 48/54",
"description": "Your journey will take you through three beautiful towns of Bavaria. Please enjoy the views and our historical towns.",
"author":"Quozzy",
"authorTeam": "R",
"ratingE6": 733333,
"medianCompletionTimeMs": 440456,
"numUniqueCompletedPlayers": 15,
"typeNumMission": 1,
"image": "https://lh3.googleusercontent.com/FZayChtvjd-WzBuwy0HqWAoCOIjcmoEThOYBLuWXiGQmcVM2HZf202CiazpMlWWLd7znbX3h4t7z4X5k-7u_",
"portalTitle": ["Beach Volleyball Court","Stone Art at WSI","Walter Schottky Institut","Zentrum Für Nanotechnologie","gebogene Stahl-DNA","PH Container "],
"portalTypeNum": [1,1,1,1,1,1],
"portalObjectiveNum": [1,1,1,1,1,1],
"id": 14
},
"geometry": {
"type": "LineString",
"coordinates": [
[
11.674707,48.26821
]
,[
11.675493,48.268408
]
,[
11.676751,48.268788
]
,[
11.676525,48.26835
]
,[
11.678333,48.268972
]
,[
11.677111,48.267005
]
]
}
},

{"type": "Feature",
"properties":{
"time": 1473312100273,
"guid": "94cd314917cc4db79a17f3d152b18db0.1c",
"title": "Sound & Vision 49/54",
"description": "Your journey will take you through three beautiful towns of Bavaria. Please enjoy the views and our historical towns.",
"author":"Quozzy",
"authorTeam": "R",
"ratingE6": 846154,
"medianCompletionTimeMs": 324139,
"numUniqueCompletedPlayers": 14,
"typeNumMission": 1,
"image": "https://lh3.googleusercontent.com/yPgNnXleNlKoR7C0-MNe6JV8rPb6Ls-gtEKpRk9iyF2KSzE3GlUQ-x-uovkiqxVkjKFmXM4qDDpsGdLqYck",
"portalTitle": ["Physik Bibliothek","TUM Fachschaft Physik","Physik-Department TUM","Atom-Ei","Exzellenzzentrum Garching","Stein Wippe"],
"portalTypeNum": [1,1,1,1,1,1],
"portalObjectiveNum": [1,1,1,1,1,1],
"id": 14
},
"geometry": {
"type": "LineString",
"coordinates": [
[
11.675989,48.266755
]
,[
11.675554,48.266913
]
,[
11.674781,48.26681
]
,[
11.672513,48.266566
]
,[
11.671164,48.266429
]
,[
11.671044,48.266187
]
]
}
},

{"type": "Feature",
"properties":{
"time": 1473312104344,
"guid": "28b969b205274bedb2eb1b60578cf397.1c",
"title": "Sound & Vision 50/54",
"description": "Your journey will take you through three beautiful towns of Bavaria. Please enjoy the views and our historical towns.",
"author":"Quozzy",
"authorTeam": "R",
"ratingE6": 823529,
"medianCompletionTimeMs": 358734,
"numUniqueCompletedPlayers": 18,
"typeNumMission": 1,
"image": "https://lh3.googleusercontent.com/wkCNXY5Ggx0salawBjzfbZtLvM1o95OnXWy1In_Tuf-AJjMg3uM-JmzeNJJougmodN3F8DXAJmZ844Pxgec",
"portalTitle": ["TUM MW","TUM Fakultät Maschinenwesen","Säulen","Tum IWB","U-Bahn Station Garching Forsch","Zentralinstitut für Medizintechnik"],
"portalTypeNum": [1,1,1,1,1,1],
"portalObjectiveNum": [1,1,1,1,1,1],
"id": 14
},
"geometry": {
"type": "LineString",
"coordinates": [
[
11.671594,48.26561
]
,[
11.671139,48.2656
]
,[
11.670993,48.265004
]
,[
11.66973,48.264362
]
,[
11.671051,48.264067
]
,[
11.670538,48.264004
]
]
}
},

{"type": "Feature",
"properties":{
"time": 1473312128170,
"guid": "56fa2c0af8cb45d8a51e7b5a0eaf9675.1c",
"title": "Sound & Vision 51/54",
"description": "Your journey will take you through three beautiful towns of Bavaria. Please enjoy the views and our historical towns.",
"author":"Quozzy",
"authorTeam": "R",
"ratingE6": 785714,
"medianCompletionTimeMs": 971124,
"numUniqueCompletedPlayers": 14,
"typeNumMission": 1,
"image": "https://lh3.googleusercontent.com/h-dlpFpmjMPAlapnhieE7fS0K3059k-qd-Lz5nP-q6YOR-rJFDulumPRb6GkJ8ISAF-paReTA7wpf-2vK1c",
"portalTitle": ["Friedhof Garching","Der Traktor","Das Netz","Rosa Säule at Studentenwerk","Die Burg","Theater im Römerhof"],
"portalTypeNum": [1,1,1,1,1,1],
"portalObjectiveNum": [1,1,1,1,1,1],
"id": 14
},
"geometry": {
"type": "LineString",
"coordinates": [
[
11.656025,48.254993
]
,[
11.658661,48.254734
]
,[
11.65883,48.254441
]
,[
11.659436,48.25302
]
,[
11.658472,48.252716
]
,[
11.655596,48.250289
]
]
}
},

{"type": "Feature",
"properties":{
"time": 1473312133828,
"guid": "0a45df15bc6f41328cf5cc09b33f852b.1c",
"title": "Sound & Vision 52/54",
"description": "Your journey will take you through three beautiful towns of Bavaria. Please enjoy the views and our historical towns.",
"author":"Quozzy",
"authorTeam": "R",
"ratingE6": 823529,
"medianCompletionTimeMs": 587863,
"numUniqueCompletedPlayers": 17,
"typeNumMission": 1,
"image": "https://lh3.googleusercontent.com/n11LPt3I9YfY_McV2RUpEobAHHyXWrAW7e6nOR8FmMn37rPe8NMB0JZVyZ52awifNf7WGfFPgZOpVLPI-tQ",
"portalTitle": ["Maibaum Garching","Kleines Wegkreuz","St. Katharina","Gänsebrunnen","U-Bahn Garching","Kugelbrunnen"],
"portalTypeNum": [1,1,1,1,1,1],
"portalObjectiveNum": [1,1,1,1,1,1],
"id": 14
},
"geometry": {
"type": "LineString",
"coordinates": [
[
11.653025,48.249463
]
,[
11.653097,48.248687
]
,[
11.651748,48.249022
]
,[
11.651581,48.249314
]
,[
11.651386,48.249691
]
,[
11.650875,48.25029
]
]
}
},

{"type": "Feature",
"properties":{
"time": 1473312136775,
"guid": "d8a7c35755e9460a8997057422a9404c.1c",
"title": "Sound & Vision 53/54",
"description": "Your journey will take you through three beautiful towns of Bavaria. Please enjoy the views and our historical towns.",
"author":"Quozzy",
"authorTeam": "R",
"ratingE6": 812500,
"medianCompletionTimeMs": 648050,
"numUniqueCompletedPlayers": 16,
"typeNumMission": 1,
"image": "https://lh3.googleusercontent.com/Zcuf9LOrbNfpxji6ycnxMzHv4LBG2dxLT6zVe2gKxZHU3RyoNUWkm4u2g4VgsYYfPKkcigQksC90pWP_BWID",
"portalTitle": ["Town Hall of Garching Clock","Baumskulptur in Garching","Holy Man on Cloud","Human Monolyth","Laudatekirche","Pacman Skulptur"],
"portalTypeNum": [1,1,1,1,1,1],
"portalObjectiveNum": [1,1,1,1,1,1],
"id": 14
},
"geometry": {
"type": "LineString",
"coordinates": [
[
11.650364,48.251349
]
,[
11.650173,48.251573
]
,[
11.651067,48.252685
]
,[
11.649839,48.253398
]
,[
11.649852,48.250206
]
,[
11.649244,48.250471
]
]
}
},

{"type": "Feature",
"properties":{
"time": 1473312140925,
"guid": "ff3884eee93d4500b4b945ecae5a98a2.1c",
"title": "Sound & Vision 54/54",
"description": "Your journey will take you through three beautiful towns of Bavaria. Please enjoy the views and our historical towns.",
"author":"Quozzy",
"authorTeam": "R",
"ratingE6": 800000,
"medianCompletionTimeMs": 783700,
"numUniqueCompletedPlayers": 15,
"typeNumMission": 1,
"image": "https://lh3.googleusercontent.com/7kyODkilDcbnDYySSz7Ud4U7k3Zgpch0E4Q0rgH6kOlKGnWYynAT42_Usz7MXH99syJqiLApJkaVDGxQgQ-o",
"portalTitle": ["Fountain","Kreuzweg bei St. Severin","Door of St. Severin","St. Severin","Neuapostolische Kirche","Wasserturm Garching"],
"portalTypeNum": [1,1,1,1,1,1],
"portalObjectiveNum": [1,1,1,1,1,1],
"id": 14
},
"geometry": {
"type": "LineString",
"coordinates": [
[
11.648293,48.249694
]
,[
11.64842,48.24821
]
,[
11.648114,48.248049
]
,[
11.647893,48.247842
]
,[
11.648463,48.246123
]
,[
11.646297,48.244077
]
]
}
}]}