{"type": "FeatureCollection","features": [{"type": "Feature","properties": {"mission":1},"geometry":{"type": "Point","coordinates":[
11.076893,48.104563
]
}},{"type": "Feature","properties": {"mission":2},"geometry":{"type": "Point","coordinates":[
11.084113,48.10895
]
}},{"type": "Feature","properties": {"mission":3},"geometry":{"type": "Point","coordinates":[
11.085402,48.111098
]
}},{"type": "Feature","properties": {"mission":4},"geometry":{"type": "Point","coordinates":[
11.086378,48.104569
]
}},{"type": "Feature","properties": {"mission":5},"geometry":{"type": "Point","coordinates":[
11.109938,48.097811
]
}}]}