{"type":"FeatureCollection","features":[{"type": "Feature",
"properties":{
"time": 1473501907805,
"guid": "64cda98a7b254f4ba9e56f295a653975.1c",
"title": "Zombie Apokalypse 1/12",
"description": "Zombies überrennen die Stadt. Versuche zu entkommen und durchquere die Altstadt. Startportal ist das 'Warzenschwein Hetzel'. Dauer ca. 1 - 1,5 Std.",
"author":"Sturmgrimm",
"authorTeam": "E",
"ratingE6": 935484,
"medianCompletionTimeMs": 714632,
"numUniqueCompletedPlayers": 30,
"typeNumMission": 1,
"image": "https://lh3.googleusercontent.com/pL8iitfpc1oTSwndFHw8-kdLhsuD7066uYm8PQesDTGf4iLsPyCE3KO5ilNNuEJxJZxarM3znNfAxMpOcpY",
"portalTitle": ["Warzenschwein Hetzel","Wandstatue","Chefkoch","Freisinger Gemälde","Freisinger Tor","Commerzbank"],
"portalTypeNum": [1,1,1,1,1,1],
"portalObjectiveNum": [1,1,1,1,1,1],
"id": 38
},
"geometry": {
"type": "LineString",
"coordinates": [
[
11.437851,48.262847
]
,[
11.437444,48.26294
]
,[
11.436892,48.261004
]
,[
11.436382,48.26102
]
,[
11.436268,48.260823
]
,[
11.436063,48.26056
]
]
}
},

{"type": "Feature",
"properties":{
"time": 1473501915222,
"guid": "d66f2b25f8f24901905b5342a97651ce.1c",
"title": "Zombie Apokalypse 2/12",
"description": "Zombies überrennen die Stadt. Versuche zu entkommen und durchquere die Altstadt. Startportal ist das 'Warzenschwein Hetzel'. Dauer ca. 1 - 1,5 Std.",
"author":"Sturmgrimm",
"authorTeam": "E",
"ratingE6": 1000000,
"medianCompletionTimeMs": 276033,
"numUniqueCompletedPlayers": 30,
"typeNumMission": 1,
"image": "https://lh3.googleusercontent.com/37XiLAyrCVKjpzwxrDzaAzZLFfWpNgMsY7BJpn-LvfyiQyd25oVsJMZ_s4lJSw19VL1gXVF6wM5gIrBQpYoK",
"portalTitle": ["Hergl","Opfer Des Faschismus","Dachauer Adventskalender","Blacksmith Statue","Lady with Child","Dachau City Gate"],
"portalTypeNum": [1,1,1,1,1,1],
"portalObjectiveNum": [1,1,1,1,1,1],
"id": 38
},
"geometry": {
"type": "LineString",
"coordinates": [
[
11.436101,48.260319
]
,[
11.435286,48.259727
]
,[
11.435285,48.259451
]
,[
11.435327,48.259225
]
,[
11.434984,48.259116
]
,[
11.434952,48.259295
]
]
}
},

{"type": "Feature",
"properties":{
"time": 1473501917832,
"guid": "ad98fcf826df4ec5bc545f5874c57913.1c",
"title": "Zombie Apokalypse 3/12",
"description": "Zombies überrennen die Stadt. Versuche zu entkommen und durchquere die Altstadt. Startportal ist das 'Warzenschwein Hetzel'. Dauer ca. 1 - 1,5 Std.",
"author":"Sturmgrimm",
"authorTeam": "E",
"ratingE6": 1000000,
"medianCompletionTimeMs": 293290,
"numUniqueCompletedPlayers": 33,
"typeNumMission": 1,
"image": "https://lh3.googleusercontent.com/C-nM2I4__58p1i2guYZVFtiifQCJt4GvOYYeWLq2lt4fx5Qz4E4zHbroKkhpaWuZspYf2a7Zla925DN-vN4",
"portalTitle": ["Der kleine Markus im Blumenbeet","Dachauer Altstadtkirche","Rückkirche","Der gemeine Froschpiekser","Glocken","Kulturschranne"],
"portalTypeNum": [1,1,1,1,1,1],
"portalObjectiveNum": [1,1,1,1,1,1],
"id": 38
},
"geometry": {
"type": "LineString",
"coordinates": [
[
11.434559,48.25942
]
,[
11.434584,48.259711
]
,[
11.434022,48.259532
]
,[
11.433794,48.259676
]
,[
11.433487,48.259671
]
,[
11.434254,48.259806
]
]
}
},

{"type": "Feature",
"properties":{
"time": 1473501922336,
"guid": "2b0e1dbae09341658cc2fd6fbce03424.1c",
"title": "Zombie Apokalypse 4/12",
"description": "Zombies überrennen die Stadt. Versuche zu entkommen und durchquere die Altstadt. Startportal ist das 'Warzenschwein Hetzel'. Dauer ca. 1 - 1,5 Std.",
"author":"Sturmgrimm",
"authorTeam": "E",
"ratingE6": 1000000,
"medianCompletionTimeMs": 394337,
"numUniqueCompletedPlayers": 31,
"typeNumMission": 1,
"image": "https://lh3.googleusercontent.com/gK6LGCil99_f8lAdA5LkYTTl6txt5qDvqwZINd0bkUsbrUo2yPTWp1ME7RzFbZWqaNRvHnWUQLkiZMUoioc",
"portalTitle": ["Maria Painting","Kunsthaus","Florians Brunnen","Marien Statue ","Gustaf Florian Springer Memorial","Wasserbrunnen Wieninger"],
"portalTypeNum": [1,1,1,1,1,1],
"portalObjectiveNum": [1,1,1,1,1,1],
"id": 38
},
"geometry": {
"type": "LineString",
"coordinates": [
[
11.434545,48.260064
]
,[
11.434842,48.260669
]
,[
11.434337,48.260351
]
,[
11.433819,48.260321
]
,[
11.433306,48.26008
]
,[
11.432923,48.260012
]
]
}
},

{"type": "Feature",
"properties":{
"time": 1473501929510,
"guid": "552f520d27724f48b30e92ff08d23883.1c",
"title": "Zombie Apokalypse 5/12",
"description": "Zombies überrennen die Stadt. Versuche zu entkommen und durchquere die Altstadt. Startportal ist das 'Warzenschwein Hetzel'. Dauer ca. 1 - 1,5 Std.",
"author":"Sturmgrimm",
"authorTeam": "E",
"ratingE6": 928571,
"medianCompletionTimeMs": 346421,
"numUniqueCompletedPlayers": 28,
"typeNumMission": 1,
"image": "https://lh3.googleusercontent.com/yQhWy_XympeCrTwwMRVTvhHe-jw-gNWKT01bQcWFgVLweCvTDw42PNIOmAWf-DIpPjOQzSFtwU3nhklezzhG",
"portalTitle": ["Augsburger Tor","Dachauer Wallart","Statue des unglaublichen Mike","Kreuzigungsweg taferl","Ehrengedenken Den Gefallenen 1945","Friedhofskapelle"],
"portalTypeNum": [1,1,1,1,1,1],
"portalObjectiveNum": [1,1,1,1,1,1],
"id": 38
},
"geometry": {
"type": "LineString",
"coordinates": [
[
11.432677,48.260189
]
,[
11.431671,48.260559
]
,[
11.432811,48.260577
]
,[
11.433665,48.261064
]
,[
11.433721,48.261297
]
,[
11.434019,48.261198
]
]
}
},

{"type": "Feature",
"properties":{
"time": 1473501950797,
"guid": "e90df03560184304a055645adb81635d.1c",
"title": "Zombie Apokalypse 6/12",
"description": "Zombies überrennen die Stadt. Versuche zu entkommen und durchquere die Altstadt. Startportal ist das 'Warzenschwein Hetzel'. Dauer ca. 1 - 1,5 Std.",
"author":"Sturmgrimm",
"authorTeam": "E",
"ratingE6": 892857,
"medianCompletionTimeMs": 767209,
"numUniqueCompletedPlayers": 28,
"typeNumMission": 1,
"image": "https://lh3.googleusercontent.com/mHtuNHXTDZgJror35t-43dAWkKH3mW38yno4DTFVHEb7E1Q42RhB4KgT8p5LKJsKKIMn6usHcsuGs3P0zCU",
"portalTitle": ["Ureinwohnerin Bayerns","Heiliger Lukas","Frau mit Herz aus Gold","Steinbrunnen Rathausapotheke ","Farbenfroh ","Maria Mit Dem Kind 1886"],
"portalTypeNum": [1,1,1,1,1,1],
"portalObjectiveNum": [1,1,1,1,1,1],
"id": 38
},
"geometry": {
"type": "LineString",
"coordinates": [
[
11.432257,48.261034
]
,[
11.432167,48.261534
]
,[
11.431905,48.262011
]
,[
11.433442,48.262978
]
,[
11.435119,48.264303
]
,[
11.437946,48.263979
]
]
}
},

{"type": "Feature",
"properties":{
"time": 1473501964023,
"guid": "2f1f02655f754c7b92a98f9690767f2f.1c",
"title": "Zombie Apokalypse 7/12",
"description": "Zombies überrennen die Stadt. Versuche zu entkommen und durchquere die Altstadt. Startportal ist das 'Warzenschwein Hetzel'. Dauer ca. 1 - 1,5 Std.",
"author":"Sturmgrimm",
"authorTeam": "E",
"ratingE6": 1000000,
"medianCompletionTimeMs": 423782,
"numUniqueCompletedPlayers": 29,
"typeNumMission": 1,
"image": "https://lh3.googleusercontent.com/eJ1FDvNue70mmW0Vnca6_uHZuLoVo7sMrxAgtR247iv3GiPKOfkhj03giFrrcAAf5asfyrnIEYZjWgiH2XQ",
"portalTitle": ["Warzenschwein Hetzel","Wandstatue","Chefkoch","Freisinger Gemälde","Freisinger Tor","Commerzbank"],
"portalTypeNum": [1,1,1,1,1,1],
"portalObjectiveNum": [1,1,1,1,1,1],
"id": 38
},
"geometry": {
"type": "LineString",
"coordinates": [
[
11.437851,48.262847
]
,[
11.437444,48.26294
]
,[
11.436892,48.261004
]
,[
11.436382,48.26102
]
,[
11.436268,48.260823
]
,[
11.436063,48.26056
]
]
}
},

{"type": "Feature",
"properties":{
"time": 1473501975075,
"guid": "e7146582da96476e98bd241943f19172.1c",
"title": "Zombie Apokalypse 8/12",
"description": "Zombies überrennen die Stadt. Versuche zu entkommen und durchquere die Altstadt. Startportal ist das 'Warzenschwein Hetzel'. Dauer ca. 1 - 1,5 Std.",
"author":"Sturmgrimm",
"authorTeam": "E",
"ratingE6": 1000000,
"medianCompletionTimeMs": 267444,
"numUniqueCompletedPlayers": 29,
"typeNumMission": 1,
"image": "https://lh3.googleusercontent.com/CnwKY7JWLSvssJ0JWxkTpo9ebIX29ziJfBYN4VsLEvpHpdE1HhGfo_XTCTqskcWz-rzy6VUgGDlYZvOyZBM",
"portalTitle": ["Hergl","Opfer Des Faschismus","Dachauer Adventskalender","Blacksmith Statue","Lady with Child","Dachau City Gate"],
"portalTypeNum": [1,1,1,1,1,1],
"portalObjectiveNum": [1,1,1,1,1,1],
"id": 38
},
"geometry": {
"type": "LineString",
"coordinates": [
[
11.436101,48.260319
]
,[
11.435286,48.259727
]
,[
11.435285,48.259451
]
,[
11.435327,48.259225
]
,[
11.434984,48.259116
]
,[
11.434952,48.259295
]
]
}
},

{"type": "Feature",
"properties":{
"time": 1473501982761,
"guid": "6f0f21f1021f40c2b4e014dc19854822.1c",
"title": "Zombie Apokalypse 9/12",
"description": "Zombies überrennen die Stadt. Versuche zu entkommen und durchquere die Altstadt. Startportal ist das 'Warzenschwein Hetzel'. Dauer ca. 1 - 1,5 Std.",
"author":"Sturmgrimm",
"authorTeam": "E",
"ratingE6": 888889,
"medianCompletionTimeMs": 237453,
"numUniqueCompletedPlayers": 27,
"typeNumMission": 1,
"image": "https://lh3.googleusercontent.com/9TNyvKjDSLBVKJmHr890-aOasfRedKpCWaSq_SYC2v4MYEPF1NeT6MxBcUWSnyEVDP-lF1xJLJVa9DJmPRlo",
"portalTitle": ["Der kleine Markus im Blumenbeet","Dachauer Altstadtkirche","Rückkirche","Glocken","Der gemeine Froschpiekser","Kulturschranne"],
"portalTypeNum": [1,1,1,1,1,1],
"portalObjectiveNum": [1,1,1,1,1,1],
"id": 38
},
"geometry": {
"type": "LineString",
"coordinates": [
[
11.434559,48.25942
]
,[
11.434584,48.259711
]
,[
11.434022,48.259532
]
,[
11.433487,48.259671
]
,[
11.433794,48.259676
]
,[
11.434254,48.259806
]
]
}
},

{"type": "Feature",
"properties":{
"time": 1473501991057,
"guid": "42b3efad6fab47d2abeaadbbd409baff.1c",
"title": "Zombie Apokalypse 10/12",
"description": "Die Zombies sind in Dachau eingefallen. Findet einen Weg ihnen zu entkommen. Zeitansatz ca. 1-1,5 Std. Wegstrecke: 2 Runden durch die Altstadt.",
"author":"Sturmgrimm",
"authorTeam": "E",
"ratingE6": 1000000,
"medianCompletionTimeMs": 382599,
"numUniqueCompletedPlayers": 23,
"typeNumMission": 1,
"image": "https://lh3.googleusercontent.com/oU9mwDObWYOyl1Yd8whoBOeXLBHym4wnyZ6r2VIgXtc829r9WAC2dE3_ejAIjAxy9QsSfmVVzf8IoWJmlr_BIg",
"portalTitle": ["Maria Painting","Little Soldier ","Kunsthaus","Florians Brunnen","Marien Statue ","Gustaf Florian Springer Memorial","Wasserbrunnen Wieninger"],
"portalTypeNum": [1,1,1,1,1,1,1],
"portalObjectiveNum": [1,1,1,1,1,1,1],
"id": 38
},
"geometry": {
"type": "LineString",
"coordinates": [
[
11.434545,48.260064
]
,[
11.435286,48.260583
]
,[
11.434842,48.260669
]
,[
11.434337,48.260351
]
,[
11.433819,48.260321
]
,[
11.433306,48.26008
]
,[
11.432923,48.260012
]
]
}
},

{"type": "Feature",
"properties":{
"time": 1473502001205,
"guid": "88666a4446b542cc93e1e04d2c4899a6.1c",
"title": "Zombie Apokalypse 11/12",
"description": "Ihr habt es fast geschafft. Ihr seid auf dem Weg zu einem sicheren Versteck. Zeitansatz: 1-1,5 Std, Wegstrecke: 2 Runden durch die Dachauer Altstadt",
"author":"Sturmgrimm",
"authorTeam": "E",
"ratingE6": 1000000,
"medianCompletionTimeMs": 313583,
"numUniqueCompletedPlayers": 23,
"typeNumMission": 1,
"image": "https://lh3.googleusercontent.com/2Y5TFTOIsPFCzF4w5_fZbqEdMj04W1DmvOJX31bfU0_p9yTdYMB2yHVTy-TkDaW7LCTE4OhhaKTm6hqmWhcxLg",
"portalTitle": ["Augsburger Tor","Maria Wandfigur","Dachauer Wallart","Statue des unglaublichen Mike","Kreuzigungsweg taferl","Ehrengedenken Den Gefallenen 1945","Friedhofskapelle"],
"portalTypeNum": [1,1,1,1,1,1,1],
"portalObjectiveNum": [1,1,1,1,1,1,1],
"id": 38
},
"geometry": {
"type": "LineString",
"coordinates": [
[
11.432677,48.260189
]
,[
11.432322,48.260132
]
,[
11.431671,48.260559
]
,[
11.432811,48.260577
]
,[
11.433665,48.261064
]
,[
11.433721,48.261297
]
,[
11.434019,48.261198
]
]
}
},

{"type": "Feature",
"properties":{
"time": 1473502018176,
"guid": "e03502212c9d4b048a080497b8ea3607.1c",
"title": "'Zombie Apokalypse' 12/12",
"description": "Zombies überrennen die Stadt. Versuche zu entkommen und durchquere die Altstadt. Startportal ist das 'Ureinwohner Bayerns'. Dauer ca. 1 - 1,5 Std.",
"author":"Sturmgrimm",
"authorTeam": "E",
"ratingE6": 1000000,
"medianCompletionTimeMs": 665507,
"numUniqueCompletedPlayers": 23,
"typeNumMission": 1,
"image": "https://lh3.googleusercontent.com/iSCXNVW8KQrXYiUDjYAt4BV-0aJBhx9ORShmPah4OJIF5AWMZ0EmAM53q4H1yaaX-Q4qShO3aREr1z-IbisM",
"portalTitle": ["Ureinwohnerin Bayerns","Heiliger Lukas","Frau mit Herz aus Gold","Steinbrunnen Rathausapotheke ","Farbenfroh ","Maria Mit Dem Kind 1886"],
"portalTypeNum": [1,1,1,1,1,1],
"portalObjectiveNum": [1,1,1,1,1,1],
"id": 38
},
"geometry": {
"type": "LineString",
"coordinates": [
[
11.432257,48.261034
]
,[
11.432167,48.261534
]
,[
11.431905,48.262011
]
,[
11.433442,48.262978
]
,[
11.435119,48.264303
]
,[
11.437946,48.263979
]
]
}
}]}